﻿Log file open, 09/10/20 12:48:41
LogInit: Display: Running engine for game: peli
LogPlatformFile: Not using cached read wrapper
LogTaskGraph: Started task graph with 5 named threads and 23 total threads with 3 sets of task threads.
LogStats: Stats thread started at 0.192824
LogD3D11RHI: Loaded GFSDK_Aftermath_Lib.x64.dll
LogICUInternationalization: ICU TimeZone Detection - Raw Offset: +2:00, Platform Override: ''
LogPluginManager: Mounting plugin Paper2D
LogPluginManager: Mounting plugin AISupport
LogPluginManager: Mounting plugin LightPropagationVolume
LogPluginManager: Mounting plugin CameraShakePreviewer
LogPluginManager: Mounting plugin ActorLayerUtilities
LogPluginManager: Mounting plugin AnimationSharing
LogPluginManager: Mounting plugin CLionSourceCodeAccess
LogPluginManager: Mounting plugin CodeLiteSourceCodeAccess
LogPluginManager: Mounting plugin GitSourceControl
LogPluginManager: Mounting plugin KDevelopSourceCodeAccess
LogPluginManager: Mounting plugin NullSourceCodeAccess
LogPluginManager: Mounting plugin PerforceSourceControl
LogPluginManager: Mounting plugin PlasticSourceControl
LogPluginManager: Mounting plugin RiderSourceCodeAccess
LogPluginManager: Mounting plugin SubversionSourceControl
LogPluginManager: Mounting plugin UObjectPlugin
LogPluginManager: Mounting plugin VisualStudioCodeSourceCodeAccess
LogPluginManager: Mounting plugin VisualStudioSourceCodeAccess
LogPluginManager: Mounting plugin XCodeSourceCodeAccess
LogPluginManager: Mounting plugin AssetManagerEditor
LogPluginManager: Mounting plugin CryptoKeys
LogPluginManager: Mounting plugin CurveEditorTools
LogPluginManager: Mounting plugin DataValidation
LogPluginManager: Mounting plugin EditorScriptingUtilities
LogPluginManager: Mounting plugin FacialAnimation
LogPluginManager: Mounting plugin GameplayTagsEditor
LogPluginManager: Mounting plugin GeometryMode
LogPluginManager: Mounting plugin MacGraphicsSwitching
LogPluginManager: Mounting plugin MaterialAnalyzer
LogPluginManager: Mounting plugin MobileLauncherProfileWizard
LogPluginManager: Mounting plugin PluginBrowser
LogPluginManager: Mounting plugin SpeedTreeImporter
LogPluginManager: Mounting plugin DatasmithContent
LogPluginManager: Mounting plugin VariantManagerContent
LogPluginManager: Mounting plugin AlembicImporter
LogPluginManager: Mounting plugin AutomationUtils
LogPluginManager: Mounting plugin BackChannel
LogPluginManager: Mounting plugin ChaosCloth
LogPluginManager: Mounting plugin ChaosClothEditor
LogPluginManager: Mounting plugin ChaosEditor
LogPluginManager: Mounting plugin ChaosNiagara
LogPluginManager: Mounting plugin ChaosSolverPlugin
LogPluginManager: Mounting plugin CharacterAI
LogPluginManager: Mounting plugin GeometryCache
LogPluginManager: Mounting plugin GeometryCollectionPlugin
LogPluginManager: Mounting plugin GeometryProcessing
LogPluginManager: Mounting plugin PlanarCut
LogPluginManager: Mounting plugin PlatformCrypto
LogPluginManager: Mounting plugin ProxyLODPlugin
LogPluginManager: Mounting plugin SkeletalReduction
LogPluginManager: Mounting plugin Niagara
LogPluginManager: Mounting plugin MagicLeap
LogPluginManager: Mounting plugin MagicLeapLightEstimation
LogPluginManager: Mounting plugin MagicLeapMedia
LogPluginManager: Mounting plugin MagicLeapPassableWorld
LogPluginManager: Mounting plugin MLSDK
LogPluginManager: Mounting plugin AndroidMedia
LogPluginManager: Mounting plugin AvfMedia
LogPluginManager: Mounting plugin ImgMedia
LogPluginManager: Mounting plugin MediaCompositing
LogPluginManager: Mounting plugin MediaPlayerEditor
LogPluginManager: Mounting plugin WebMMedia
LogPluginManager: Mounting plugin WmfMedia
LogPluginManager: Mounting plugin MeshPainting
LogPluginManager: Mounting plugin TcpMessaging
LogPluginManager: Mounting plugin UdpMessaging
LogPluginManager: Mounting plugin ActorSequence
LogPluginManager: Mounting plugin LevelSequenceEditor
LogPluginManager: Mounting plugin MatineeToLevelSequence
LogPluginManager: Mounting plugin MovieRenderPipeline
LogPluginManager: Mounting plugin TemplateSequence
LogPluginManager: Mounting plugin NetcodeUnitTest
LogPluginManager: Mounting plugin NUTUnrealEngine4
LogPluginManager: Mounting plugin OnlineSubsystemGooglePlay
LogPluginManager: Mounting plugin OnlineSubsystemIOS
LogPluginManager: Mounting plugin OnlineSubsystem
LogPluginManager: Mounting plugin OnlineSubsystemNull
LogPluginManager: Mounting plugin OnlineSubsystemUtils
LogPluginManager: Mounting plugin LauncherChunkInstaller
LogPluginManager: Mounting plugin AndroidDeviceProfileSelector
LogPluginManager: Mounting plugin AndroidMoviePlayer
LogPluginManager: Mounting plugin AndroidPermission
LogPluginManager: Mounting plugin AppleImageUtils
LogPluginManager: Mounting plugin AppleMoviePlayer
LogPluginManager: Mounting plugin ArchVisCharacter
LogPluginManager: Mounting plugin AssetTags
LogPluginManager: Mounting plugin AudioCapture
LogPluginManager: Mounting plugin CableComponent
LogPluginManager: Mounting plugin CustomMeshComponent
LogPluginManager: Mounting plugin EditableMesh
LogPluginManager: Mounting plugin ExampleDeviceProfileSelector
LogPluginManager: Mounting plugin GoogleCloudMessaging
LogPluginManager: Mounting plugin GooglePAD
LogPluginManager: Mounting plugin IOSDeviceProfileSelector
LogPluginManager: Mounting plugin LinuxDeviceProfileSelector
LogPluginManager: Mounting plugin LocationServicesBPLibrary
LogPluginManager: Mounting plugin MobilePatchingUtils
LogPluginManager: Mounting plugin OculusVR
LogPluginManager: Mounting plugin PhysXVehicles
LogPluginManager: Mounting plugin PostSplashScreen
LogPluginManager: Mounting plugin ProceduralMeshComponent
LogPluginManager: Mounting plugin RuntimePhysXCooking
LogPluginManager: Mounting plugin SignificanceManager
LogPluginManager: Mounting plugin SoundFields
LogPluginManager: Mounting plugin SteamVR
LogPluginManager: Mounting plugin Synthesis
LogPluginManager: Mounting plugin WebMMoviePlayer
LogPluginManager: Mounting plugin WindowsMoviePlayer
LogPluginManager: Mounting plugin ScreenshotTools
LogInit: Using libcurl 7.55.1-DEV
LogInit:  - built for x86_64-pc-win32
LogInit:  - supports SSL with OpenSSL/1.1.1
LogInit:  - supports HTTP deflate (compression) using libz 1.2.8
LogInit:  - other features:
LogInit:      CURL_VERSION_SSL
LogInit:      CURL_VERSION_LIBZ
LogInit:      CURL_VERSION_IPV6
LogInit:      CURL_VERSION_ASYNCHDNS
LogInit:      CURL_VERSION_LARGEFILE
LogInit:      CURL_VERSION_IDN
LogInit:  CurlRequestOptions (configurable via config and command line):
LogInit:  - bVerifyPeer = true  - Libcurl will verify peer certificate
LogInit:  - bUseHttpProxy = false  - Libcurl will NOT use HTTP proxy
LogInit:  - bDontReuseConnections = false  - Libcurl will reuse connections
LogInit:  - MaxHostConnections = 16  - Libcurl will limit the number of connections to a host
LogInit:  - LocalHostAddr = Default
LogInit:  - BufferSize = 65536
LogOnline: OSS: Creating online subsystem instance for: NULL
LogInit: WinSock: version 1.1 (2.2), MaxSocks=32767, MaxUdp=65467
LogOnline: OSS: TryLoadSubsystemAndSetDefault: Loaded subsystem for module [NULL]
LogInit: Build: ++UE4+Release-4.25-CL-13942748
LogInit: Engine Version: 4.25.3-13942748+++UE4+Release-4.25
LogInit: Compatible Engine Version: 4.25.0-13144385+++UE4+Release-4.25
LogInit: Net CL: 13144385
LogInit: OS: Windows 10 (Release 1903) (), CPU: Intel(R) Core(TM) i7-4770K CPU @ 3.50GHz, GPU: NVIDIA GeForce GTX 780 Ti
LogInit: Compiled (64-bit): Jul 25 2020 02:07:48
LogInit: Compiled with Visual C++: 19.24.28315.00
LogInit: Build Configuration: Development
LogInit: Branch Name: ++UE4+Release-4.25
LogInit: Command Line: 
LogInit: Base Directory: C:/Program Files/Epic Games/UE_4.25/Engine/Binaries/Win64/
LogInit: Allocator: TBB
LogInit: Installed Engine Build: 1
LogDevObjectVersion: Number of dev versions registered: 26
LogDevObjectVersion:   Dev-Blueprints (B0D832E4-1F89-4F0D-ACCF-7EB736FD4AA2): 10
LogDevObjectVersion:   Dev-Build (E1C64328-A22C-4D53-A36C-8E866417BD8C): 0
LogDevObjectVersion:   Dev-Core (375EC13C-06E4-48FB-B500-84F0262A717E): 4
LogDevObjectVersion:   Dev-Editor (E4B068ED-F494-42E9-A231-DA0B2E46BB41): 38
LogDevObjectVersion:   Dev-Framework (CFFC743F-43B0-4480-9391-14DF171D2073): 37
LogDevObjectVersion:   Dev-Mobile (B02B49B5-BB20-44E9-A304-32B752E40360): 2
LogDevObjectVersion:   Dev-Networking (A4E4105C-59A1-49B5-A7C5-40C4547EDFEE): 0
LogDevObjectVersion:   Dev-Online (39C831C9-5AE6-47DC-9A44-9C173E1C8E7C): 0
LogDevObjectVersion:   Dev-Physics (78F01B33-EBEA-4F98-B9B4-84EACCB95AA2): 4
LogDevObjectVersion:   Dev-Platform (6631380F-2D4D-43E0-8009-CF276956A95A): 0
LogDevObjectVersion:   Dev-Rendering (12F88B9F-8875-4AFC-A67C-D90C383ABD29): 43
LogDevObjectVersion:   Dev-Sequencer (7B5AE74C-D270-4C10-A958-57980B212A5A): 12
LogDevObjectVersion:   Dev-VR (D7296918-1DD6-4BDD-9DE2-64A83CC13884): 3
LogDevObjectVersion:   Dev-LoadTimes (C2A15278-BFE7-4AFE-6C17-90FF531DF755): 1
LogDevObjectVersion:   Private-Geometry (6EACA3D4-40EC-4CC1-B786-8BED09428FC5): 3
LogDevObjectVersion:   Dev-AnimPhys (29E575DD-E0A3-4627-9D10-D276232CDCEA): 17
LogDevObjectVersion:   Dev-Anim (AF43A65D-7FD3-4947-9873-3E8ED9C1BB05): 7
LogDevObjectVersion:   Dev-ReflectionCapture (6B266CEC-1EC7-4B8F-A30B-E4D90942FC07): 1
LogDevObjectVersion:   Dev-Automation (0DF73D61-A23F-47EA-B727-89E90C41499A): 1
LogDevObjectVersion:   FortniteMain (601D1886-AC64-4F84-AA16-D3DE0DEAC7D6): 31
LogDevObjectVersion:   Dev-Enterprise (9DFFBCD6-494F-0158-E221-12823C92A888): 10
LogDevObjectVersion:   Dev-Niagara (F2AED0AC-9AFE-416F-8664-AA7FFA26D6FC): 1
LogDevObjectVersion:   Dev-Destruction (174F1F0B-B4C6-45A5-B13F-2EE8D0FB917D): 10
LogDevObjectVersion:   Dev-Physics-Ext (35F94A83-E258-406C-A318-09F59610247C): 37
LogDevObjectVersion:   Dev-PhysicsMaterial-Chaos (B68FC16E-8B1B-42E2-B453-215C058844FE): 1
LogDevObjectVersion:   Dev-CineCamera (B2E18506-4273-CFC2-A54E-F4BB758BBA07): 1
LogInit: Presizing for max 25165824 objects, including 0 objects not considered by GC, pre-allocating 0 bytes for permanent pool.
LogConfig: Applying CVar settings from Section [/Script/Engine.StreamingSettings] File [C:/Users/Piitu/Documents/peli/peli/Saved/Config/Windows/Engine.ini]
LogConfig: Setting CVar [[s.MinBulkDataSizeForAsyncLoading:131072]]
LogConfig: Setting CVar [[s.AsyncLoadingThreadEnabled:0]]
LogConfig: Setting CVar [[s.EventDrivenLoaderEnabled:1]]
LogConfig: Setting CVar [[s.WarnIfTimeLimitExceeded:0]]
LogConfig: Setting CVar [[s.TimeLimitExceededMultiplier:1.5]]
LogConfig: Setting CVar [[s.TimeLimitExceededMinTime:0.005]]
LogConfig: Setting CVar [[s.UseBackgroundLevelStreaming:1]]
LogConfig: Setting CVar [[s.PriorityAsyncLoadingExtraTime:15.0]]
LogConfig: Setting CVar [[s.LevelStreamingActorsUpdateTimeLimit:5.0]]
LogConfig: Setting CVar [[s.PriorityLevelStreamingActorsUpdateExtraTime:5.0]]
LogConfig: Setting CVar [[s.LevelStreamingComponentsRegistrationGranularity:10]]
LogConfig: Setting CVar [[s.UnregisterComponentsTimeLimit:1.0]]
LogConfig: Setting CVar [[s.LevelStreamingComponentsUnregistrationGranularity:5]]
LogConfig: Setting CVar [[s.FlushStreamingOnExit:1]]
LogInit: Object subsystem initialized
LogConfig: Setting CVar [[con.DebugEarlyDefault:1]]
LogConfig: Setting CVar [[r.setres:1280x720]]
[2020.09.10-09.48.42:206][  0]LogConfig: Setting CVar [[r.VSync:0]]
[2020.09.10-09.48.42:206][  0]LogConfig: Setting CVar [[r.RHICmdBypass:0]]
[2020.09.10-09.48.42:206][  0]LogConfig: Applying CVar settings from Section [/Script/Engine.RendererSettings] File [C:/Users/Piitu/Documents/peli/peli/Saved/Config/Windows/Engine.ini]
[2020.09.10-09.48.42:206][  0]LogConfig: Setting CVar [[r.GPUCrashDebugging:0]]
[2020.09.10-09.48.42:206][  0]LogConfig: Setting CVar [[r.MobileHDR:0]]
[2020.09.10-09.48.42:206][  0]LogConfig: Applying CVar settings from Section [/Script/Engine.RendererOverrideSettings] File [C:/Users/Piitu/Documents/peli/peli/Saved/Config/Windows/Engine.ini]
[2020.09.10-09.48.42:206][  0]LogConfig: Applying CVar settings from Section [/Script/Engine.StreamingSettings] File [C:/Users/Piitu/Documents/peli/peli/Saved/Config/Windows/Engine.ini]
[2020.09.10-09.48.42:206][  0]LogConfig: Setting CVar [[s.MinBulkDataSizeForAsyncLoading:131072]]
[2020.09.10-09.48.42:206][  0]LogConfig: Setting CVar [[s.AsyncLoadingThreadEnabled:0]]
[2020.09.10-09.48.42:206][  0]LogConfig: Setting CVar [[s.EventDrivenLoaderEnabled:1]]
[2020.09.10-09.48.42:206][  0]LogConfig: Setting CVar [[s.WarnIfTimeLimitExceeded:0]]
[2020.09.10-09.48.42:206][  0]LogConfig: Setting CVar [[s.TimeLimitExceededMultiplier:1.5]]
[2020.09.10-09.48.42:206][  0]LogConfig: Setting CVar [[s.TimeLimitExceededMinTime:0.005]]
[2020.09.10-09.48.42:206][  0]LogConfig: Setting CVar [[s.UseBackgroundLevelStreaming:1]]
[2020.09.10-09.48.42:206][  0]LogConfig: Setting CVar [[s.PriorityAsyncLoadingExtraTime:15.0]]
[2020.09.10-09.48.42:206][  0]LogConfig: Setting CVar [[s.LevelStreamingActorsUpdateTimeLimit:5.0]]
[2020.09.10-09.48.42:206][  0]LogConfig: Setting CVar [[s.PriorityLevelStreamingActorsUpdateExtraTime:5.0]]
[2020.09.10-09.48.42:206][  0]LogConfig: Setting CVar [[s.LevelStreamingComponentsRegistrationGranularity:10]]
[2020.09.10-09.48.42:206][  0]LogConfig: Setting CVar [[s.UnregisterComponentsTimeLimit:1.0]]
[2020.09.10-09.48.42:206][  0]LogConfig: Setting CVar [[s.LevelStreamingComponentsUnregistrationGranularity:5]]
[2020.09.10-09.48.42:206][  0]LogConfig: Setting CVar [[s.FlushStreamingOnExit:1]]
[2020.09.10-09.48.42:206][  0]LogConfig: Applying CVar settings from Section [/Script/Engine.GarbageCollectionSettings] File [C:/Users/Piitu/Documents/peli/peli/Saved/Config/Windows/Engine.ini]
[2020.09.10-09.48.42:206][  0]LogConfig: Setting CVar [[gc.MaxObjectsNotConsideredByGC:1]]
[2020.09.10-09.48.42:206][  0]LogConfig: Setting CVar [[gc.SizeOfPermanentObjectPool:0]]
[2020.09.10-09.48.42:206][  0]LogConfig: Setting CVar [[gc.FlushStreamingOnGC:0]]
[2020.09.10-09.48.42:206][  0]LogConfig: Setting CVar [[gc.NumRetriesBeforeForcingGC:10]]
[2020.09.10-09.48.42:206][  0]LogConfig: Setting CVar [[gc.AllowParallelGC:1]]
[2020.09.10-09.48.42:206][  0]LogConfig: Setting CVar [[gc.TimeBetweenPurgingPendingKillObjects:61.1]]
[2020.09.10-09.48.42:206][  0]LogConfig: Setting CVar [[gc.MaxObjectsInEditor:25165824]]
[2020.09.10-09.48.42:206][  0]LogConfig: Setting CVar [[gc.IncrementalBeginDestroyEnabled:1]]
[2020.09.10-09.48.42:206][  0]LogConfig: Setting CVar [[gc.CreateGCClusters:1]]
[2020.09.10-09.48.42:206][  0]LogConfig: Setting CVar [[gc.MinGCClusterSize:5]]
[2020.09.10-09.48.42:206][  0]LogConfig: Setting CVar [[gc.ActorClusteringEnabled:0]]
[2020.09.10-09.48.42:206][  0]LogConfig: Setting CVar [[gc.BlueprintClusteringEnabled:0]]
[2020.09.10-09.48.42:206][  0]LogConfig: Setting CVar [[gc.UseDisregardForGCOnDedicatedServers:0]]
[2020.09.10-09.48.42:206][  0]LogConfig: Applying CVar settings from Section [/Script/Engine.NetworkSettings] File [C:/Users/Piitu/Documents/peli/peli/Saved/Config/Windows/Engine.ini]
[2020.09.10-09.48.42:206][  0]LogConfig: Applying CVar settings from Section [/Script/UnrealEd.CookerSettings] File [C:/Users/Piitu/Documents/peli/peli/Saved/Config/Windows/Engine.ini]
[2020.09.10-09.48.42:254][  0]LogConfig: Applying CVar settings from Section [ViewDistanceQuality@3] File [C:/Users/Piitu/Documents/peli/peli/Saved/Config/Windows/Scalability.ini]
[2020.09.10-09.48.42:254][  0]LogConfig: Setting CVar [[r.SkeletalMeshLODBias:0]]
[2020.09.10-09.48.42:254][  0]LogConfig: Setting CVar [[r.ViewDistanceScale:1.0]]
[2020.09.10-09.48.42:254][  0]LogConfig: Applying CVar settings from Section [AntiAliasingQuality@3] File [C:/Users/Piitu/Documents/peli/peli/Saved/Config/Windows/Scalability.ini]
[2020.09.10-09.48.42:254][  0]LogConfig: Setting CVar [[r.PostProcessAAQuality:4]]
[2020.09.10-09.48.42:255][  0]LogConfig: Applying CVar settings from Section [ShadowQuality@3] File [C:/Users/Piitu/Documents/peli/peli/Saved/Config/Windows/Scalability.ini]
[2020.09.10-09.48.42:255][  0]LogConfig: Setting CVar [[r.LightFunctionQuality:1]]
[2020.09.10-09.48.42:255][  0]LogConfig: Setting CVar [[r.ShadowQuality:5]]
[2020.09.10-09.48.42:255][  0]LogConfig: Setting CVar [[r.Shadow.CSM.MaxCascades:10]]
[2020.09.10-09.48.42:255][  0]LogConfig: Setting CVar [[r.Shadow.MaxResolution:2048]]
[2020.09.10-09.48.42:255][  0]LogConfig: Setting CVar [[r.Shadow.MaxCSMResolution:2048]]
[2020.09.10-09.48.42:255][  0]LogConfig: Setting CVar [[r.Shadow.RadiusThreshold:0.01]]
[2020.09.10-09.48.42:255][  0]LogConfig: Setting CVar [[r.Shadow.DistanceScale:1.0]]
[2020.09.10-09.48.42:255][  0]LogConfig: Setting CVar [[r.Shadow.CSM.TransitionScale:1.0]]
[2020.09.10-09.48.42:255][  0]LogConfig: Setting CVar [[r.Shadow.PreShadowResolutionFactor:1.0]]
[2020.09.10-09.48.42:255][  0]LogConfig: Setting CVar [[r.DistanceFieldShadowing:1]]
[2020.09.10-09.48.42:255][  0]LogConfig: Setting CVar [[r.DistanceFieldAO:1]]
[2020.09.10-09.48.42:255][  0]LogConfig: Setting CVar [[r.AOQuality:2]]
[2020.09.10-09.48.42:255][  0]LogConfig: Setting CVar [[r.VolumetricFog:1]]
[2020.09.10-09.48.42:255][  0]LogConfig: Setting CVar [[r.VolumetricFog.GridPixelSize:8]]
[2020.09.10-09.48.42:255][  0]LogConfig: Setting CVar [[r.VolumetricFog.GridSizeZ:128]]
[2020.09.10-09.48.42:255][  0]LogConfig: Setting CVar [[r.VolumetricFog.HistoryMissSupersampleCount:4]]
[2020.09.10-09.48.42:255][  0]LogConfig: Setting CVar [[r.LightMaxDrawDistanceScale:1]]
[2020.09.10-09.48.42:255][  0]LogConfig: Setting CVar [[r.CapsuleShadows:1]]
[2020.09.10-09.48.42:255][  0]LogConfig: Applying CVar settings from Section [PostProcessQuality@3] File [C:/Users/Piitu/Documents/peli/peli/Saved/Config/Windows/Scalability.ini]
[2020.09.10-09.48.42:255][  0]LogConfig: Setting CVar [[r.MotionBlurQuality:4]]
[2020.09.10-09.48.42:255][  0]LogConfig: Setting CVar [[r.AmbientOcclusionMipLevelFactor:0.4]]
[2020.09.10-09.48.42:255][  0]LogConfig: Setting CVar [[r.AmbientOcclusionMaxQuality:100]]
[2020.09.10-09.48.42:255][  0]LogConfig: Setting CVar [[r.AmbientOcclusionLevels:-1]]
[2020.09.10-09.48.42:255][  0]LogConfig: Setting CVar [[r.AmbientOcclusionRadiusScale:1.0]]
[2020.09.10-09.48.42:255][  0]LogConfig: Setting CVar [[r.DepthOfFieldQuality:2]]
[2020.09.10-09.48.42:255][  0]LogConfig: Setting CVar [[r.RenderTargetPoolMin:400]]
[2020.09.10-09.48.42:255][  0]LogConfig: Setting CVar [[r.LensFlareQuality:2]]
[2020.09.10-09.48.42:255][  0]LogConfig: Setting CVar [[r.SceneColorFringeQuality:1]]
[2020.09.10-09.48.42:255][  0]LogConfig: Setting CVar [[r.EyeAdaptationQuality:2]]
[2020.09.10-09.48.42:255][  0]LogConfig: Setting CVar [[r.BloomQuality:5]]
[2020.09.10-09.48.42:255][  0]LogConfig: Setting CVar [[r.FastBlurThreshold:100]]
[2020.09.10-09.48.42:255][  0]LogConfig: Setting CVar [[r.Upscale.Quality:3]]
[2020.09.10-09.48.42:255][  0]LogConfig: Setting CVar [[r.Tonemapper.GrainQuantization:1]]
[2020.09.10-09.48.42:255][  0]LogConfig: Setting CVar [[r.LightShaftQuality:1]]
[2020.09.10-09.48.42:255][  0]LogConfig: Setting CVar [[r.Filter.SizeScale:1]]
[2020.09.10-09.48.42:255][  0]LogConfig: Setting CVar [[r.Tonemapper.Quality:5]]
[2020.09.10-09.48.42:255][  0]LogConfig: Setting CVar [[r.DOF.Gather.AccumulatorQuality:1        ; higher gathering accumulator quality]]
[2020.09.10-09.48.42:255][  0]LogConfig: Setting CVar [[r.DOF.Gather.PostfilterMethod:1          ; Median3x3 postfilering method]]
[2020.09.10-09.48.42:255][  0]LogConfig: Setting CVar [[r.DOF.Gather.EnableBokehSettings:0       ; no bokeh simulation when gathering]]
[2020.09.10-09.48.42:255][  0]LogConfig: Setting CVar [[r.DOF.Gather.RingCount:4                 ; medium number of samples when gathering]]
[2020.09.10-09.48.42:255][  0]LogConfig: Setting CVar [[r.DOF.Scatter.ForegroundCompositing:1    ; additive foreground scattering]]
[2020.09.10-09.48.42:255][  0]LogConfig: Setting CVar [[r.DOF.Scatter.BackgroundCompositing:2    ; additive background scattering]]
[2020.09.10-09.48.42:255][  0]LogConfig: Setting CVar [[r.DOF.Scatter.EnableBokehSettings:1      ; bokeh simulation when scattering]]
[2020.09.10-09.48.42:255][  0]LogConfig: Setting CVar [[r.DOF.Scatter.MaxSpriteRatio:0.1         ; only a maximum of 10% of scattered bokeh]]
[2020.09.10-09.48.42:255][  0]LogConfig: Setting CVar [[r.DOF.Recombine.Quality:1                ; cheap slight out of focus]]
[2020.09.10-09.48.42:255][  0]LogConfig: Setting CVar [[r.DOF.Recombine.EnableBokehSettings:0    ; no bokeh simulation on slight out of focus]]
[2020.09.10-09.48.42:255][  0]LogConfig: Setting CVar [[r.DOF.TemporalAAQuality:1                ; more stable temporal accumulation]]
[2020.09.10-09.48.42:255][  0]LogConfig: Setting CVar [[r.DOF.Kernel.MaxForegroundRadius:0.025]]
[2020.09.10-09.48.42:255][  0]LogConfig: Setting CVar [[r.DOF.Kernel.MaxBackgroundRadius:0.025]]
[2020.09.10-09.48.42:255][  0]LogConfig: Applying CVar settings from Section [TextureQuality@3] File [C:/Users/Piitu/Documents/peli/peli/Saved/Config/Windows/Scalability.ini]
[2020.09.10-09.48.42:255][  0]LogConfig: Setting CVar [[r.Streaming.MipBias:0]]
[2020.09.10-09.48.42:255][  0]LogConfig: Setting CVar [[r.Streaming.AmortizeCPUToGPUCopy:0]]
[2020.09.10-09.48.42:255][  0]LogConfig: Setting CVar [[r.Streaming.MaxNumTexturesToStreamPerFrame:0]]
[2020.09.10-09.48.42:255][  0]LogConfig: Setting CVar [[r.Streaming.Boost:1]]
[2020.09.10-09.48.42:255][  0]LogConfig: Setting CVar [[r.MaxAnisotropy:8]]
[2020.09.10-09.48.42:255][  0]LogConfig: Setting CVar [[r.VT.MaxAnisotropy:8]]
[2020.09.10-09.48.42:255][  0]LogConfig: Setting CVar [[r.Streaming.LimitPoolSizeToVRAM:0]]
[2020.09.10-09.48.42:255][  0]LogConfig: Setting CVar [[r.Streaming.PoolSize:1000]]
[2020.09.10-09.48.42:255][  0]LogConfig: Setting CVar [[r.Streaming.MaxEffectiveScreenSize:0]]
[2020.09.10-09.48.42:255][  0]LogConfig: Applying CVar settings from Section [EffectsQuality@3] File [C:/Users/Piitu/Documents/peli/peli/Saved/Config/Windows/Scalability.ini]
[2020.09.10-09.48.42:255][  0]LogConfig: Setting CVar [[r.TranslucencyLightingVolumeDim:64]]
[2020.09.10-09.48.42:255][  0]LogConfig: Setting CVar [[r.RefractionQuality:2]]
[2020.09.10-09.48.42:255][  0]LogConfig: Setting CVar [[r.SSR.Quality:3]]
[2020.09.10-09.48.42:255][  0]LogConfig: Setting CVar [[r.SSR.HalfResSceneColor:0]]
[2020.09.10-09.48.42:255][  0]LogConfig: Setting CVar [[r.SceneColorFormat:4]]
[2020.09.10-09.48.42:255][  0]LogConfig: Setting CVar [[r.DetailMode:2]]
[2020.09.10-09.48.42:255][  0]LogConfig: Setting CVar [[r.TranslucencyVolumeBlur:1]]
[2020.09.10-09.48.42:255][  0]LogConfig: Setting CVar [[r.MaterialQualityLevel:1 ; High quality]]
[2020.09.10-09.48.42:255][  0]LogConfig: Setting CVar [[r.SSS.Scale:1]]
[2020.09.10-09.48.42:255][  0]LogConfig: Setting CVar [[r.SSS.SampleSet:2]]
[2020.09.10-09.48.42:255][  0]LogConfig: Setting CVar [[r.SSS.Quality:1]]
[2020.09.10-09.48.42:255][  0]LogConfig: Setting CVar [[r.SSS.HalfRes:0]]
[2020.09.10-09.48.42:255][  0]LogConfig: Setting CVar [[r.SSGI.Quality:3]]
[2020.09.10-09.48.42:255][  0]LogConfig: Setting CVar [[r.EmitterSpawnRateScale:1.0]]
[2020.09.10-09.48.42:255][  0]LogConfig: Setting CVar [[r.ParticleLightQuality:2]]
[2020.09.10-09.48.42:255][  0]LogConfig: Setting CVar [[r.SkyAtmosphere.AerialPerspectiveLUT.FastApplyOnOpaque:1 ; Always have FastSkyLUT 1 in this case to avoid wrong sky]]
[2020.09.10-09.48.42:255][  0]LogConfig: Setting CVar [[r.SkyAtmosphere.AerialPerspectiveLUT.SampleCountPerSlice:1]]
[2020.09.10-09.48.42:256][  0]LogConfig: Setting CVar [[r.SkyAtmosphere.AerialPerspectiveLUT.DepthResolution:16.0]]
[2020.09.10-09.48.42:256][  0]LogConfig: Setting CVar [[r.SkyAtmosphere.FastSkyLUT:1]]
[2020.09.10-09.48.42:256][  0]LogConfig: Setting CVar [[r.SkyAtmosphere.FastSkyLUT.SampleCountMin:4.0]]
[2020.09.10-09.48.42:256][  0]LogConfig: Setting CVar [[r.SkyAtmosphere.FastSkyLUT.SampleCountMax:32.0]]
[2020.09.10-09.48.42:256][  0]LogConfig: Setting CVar [[r.SkyAtmosphere.SampleCountMin:4.0]]
[2020.09.10-09.48.42:256][  0]LogConfig: Setting CVar [[r.SkyAtmosphere.SampleCountMax:32.0]]
[2020.09.10-09.48.42:256][  0]LogConfig: Setting CVar [[r.SkyAtmosphere.TransmittanceLUT.UseSmallFormat:0]]
[2020.09.10-09.48.42:256][  0]LogConfig: Setting CVar [[r.SkyAtmosphere.TransmittanceLUT.SampleCount:10.0]]
[2020.09.10-09.48.42:256][  0]LogConfig: Setting CVar [[r.SkyAtmosphere.MultiScatteringLUT.SampleCount:15.0]]
[2020.09.10-09.48.42:256][  0]LogConfig: Applying CVar settings from Section [FoliageQuality@3] File [C:/Users/Piitu/Documents/peli/peli/Saved/Config/Windows/Scalability.ini]
[2020.09.10-09.48.42:256][  0]LogConfig: Setting CVar [[foliage.DensityScale:1.0]]
[2020.09.10-09.48.42:256][  0]LogConfig: Setting CVar [[grass.DensityScale:1.0]]
[2020.09.10-09.48.42:256][  0]LogConfig: Applying CVar settings from Section [ShadingQuality@3] File [C:/Users/Piitu/Documents/peli/peli/Saved/Config/Windows/Scalability.ini]
[2020.09.10-09.48.42:256][  0]LogConfig: Setting CVar [[r.HairStrands.SkyLighting.SampleCount:16]]
[2020.09.10-09.48.42:256][  0]LogConfig: Setting CVar [[r.HairStrands.SkyLighting.JitterIntegration:0]]
[2020.09.10-09.48.42:256][  0]LogConfig: Setting CVar [[r.HairStrands.SkyAO.SampleCount:16]]
[2020.09.10-09.48.42:256][  0]LogConfig: Setting CVar [[r.HairStrands.DeepShadow.SuperSampling:0]]
[2020.09.10-09.48.42:256][  0]LogConfig: Setting CVar [[r.HairStrands.VisibilityPPLL:0]]
[2020.09.10-09.48.42:256][  0]LogConfig: Setting CVar [[r.HairStrands.RasterizationScale:0.5]]
[2020.09.10-09.48.42:256][  0]LogConfig: Setting CVar [[r.HairStrands.VelocityRasterizationScale:1]]
[2020.09.10-09.48.42:256][  0]LogInit: Selected Device Profile: [Windows]
[2020.09.10-09.48.42:256][  0]LogInit: Applying CVar settings loaded from the selected device profile: [Windows]
[2020.09.10-09.48.42:256][  0]LogHAL: Display: Platform has ~ 16 GB [17126313984 / 17179869184 / 16], which maps to Larger [LargestMinGB=32, LargerMinGB=12, DefaultMinGB=8, SmallerMinGB=6, SmallestMinGB=0)
[2020.09.10-09.48.42:256][  0]LogInit: Going up to parent DeviceProfile []
[2020.09.10-09.48.42:256][  0]LogConfig: Applying CVar settings from Section [ViewDistanceQuality@3] File [C:/Users/Piitu/Documents/peli/peli/Saved/Config/Windows/Scalability.ini]
[2020.09.10-09.48.42:256][  0]LogConfig: Setting CVar [[r.SkeletalMeshLODBias:0]]
[2020.09.10-09.48.42:256][  0]LogConfig: Setting CVar [[r.ViewDistanceScale:1.0]]
[2020.09.10-09.48.42:256][  0]LogConfig: Applying CVar settings from Section [AntiAliasingQuality@3] File [C:/Users/Piitu/Documents/peli/peli/Saved/Config/Windows/Scalability.ini]
[2020.09.10-09.48.42:256][  0]LogConfig: Setting CVar [[r.PostProcessAAQuality:4]]
[2020.09.10-09.48.42:256][  0]LogConfig: Applying CVar settings from Section [ShadowQuality@3] File [C:/Users/Piitu/Documents/peli/peli/Saved/Config/Windows/Scalability.ini]
[2020.09.10-09.48.42:256][  0]LogConfig: Setting CVar [[r.LightFunctionQuality:1]]
[2020.09.10-09.48.42:256][  0]LogConfig: Setting CVar [[r.ShadowQuality:5]]
[2020.09.10-09.48.42:256][  0]LogConfig: Setting CVar [[r.Shadow.CSM.MaxCascades:10]]
[2020.09.10-09.48.42:256][  0]LogConfig: Setting CVar [[r.Shadow.MaxResolution:2048]]
[2020.09.10-09.48.42:256][  0]LogConfig: Setting CVar [[r.Shadow.MaxCSMResolution:2048]]
[2020.09.10-09.48.42:256][  0]LogConfig: Setting CVar [[r.Shadow.RadiusThreshold:0.01]]
[2020.09.10-09.48.42:256][  0]LogConfig: Setting CVar [[r.Shadow.DistanceScale:1.0]]
[2020.09.10-09.48.42:256][  0]LogConfig: Setting CVar [[r.Shadow.CSM.TransitionScale:1.0]]
[2020.09.10-09.48.42:256][  0]LogConfig: Setting CVar [[r.Shadow.PreShadowResolutionFactor:1.0]]
[2020.09.10-09.48.42:256][  0]LogConfig: Setting CVar [[r.DistanceFieldShadowing:1]]
[2020.09.10-09.48.42:256][  0]LogConfig: Setting CVar [[r.DistanceFieldAO:1]]
[2020.09.10-09.48.42:256][  0]LogConfig: Setting CVar [[r.AOQuality:2]]
[2020.09.10-09.48.42:256][  0]LogConfig: Setting CVar [[r.VolumetricFog:1]]
[2020.09.10-09.48.42:256][  0]LogConfig: Setting CVar [[r.VolumetricFog.GridPixelSize:8]]
[2020.09.10-09.48.42:256][  0]LogConfig: Setting CVar [[r.VolumetricFog.GridSizeZ:128]]
[2020.09.10-09.48.42:256][  0]LogConfig: Setting CVar [[r.VolumetricFog.HistoryMissSupersampleCount:4]]
[2020.09.10-09.48.42:256][  0]LogConfig: Setting CVar [[r.LightMaxDrawDistanceScale:1]]
[2020.09.10-09.48.42:256][  0]LogConfig: Setting CVar [[r.CapsuleShadows:1]]
[2020.09.10-09.48.42:256][  0]LogConfig: Applying CVar settings from Section [PostProcessQuality@3] File [C:/Users/Piitu/Documents/peli/peli/Saved/Config/Windows/Scalability.ini]
[2020.09.10-09.48.42:256][  0]LogConfig: Setting CVar [[r.MotionBlurQuality:4]]
[2020.09.10-09.48.42:256][  0]LogConfig: Setting CVar [[r.AmbientOcclusionMipLevelFactor:0.4]]
[2020.09.10-09.48.42:256][  0]LogConfig: Setting CVar [[r.AmbientOcclusionMaxQuality:100]]
[2020.09.10-09.48.42:256][  0]LogConfig: Setting CVar [[r.AmbientOcclusionLevels:-1]]
[2020.09.10-09.48.42:256][  0]LogConfig: Setting CVar [[r.AmbientOcclusionRadiusScale:1.0]]
[2020.09.10-09.48.42:256][  0]LogConfig: Setting CVar [[r.DepthOfFieldQuality:2]]
[2020.09.10-09.48.42:256][  0]LogConfig: Setting CVar [[r.RenderTargetPoolMin:400]]
[2020.09.10-09.48.42:256][  0]LogConfig: Setting CVar [[r.LensFlareQuality:2]]
[2020.09.10-09.48.42:256][  0]LogConfig: Setting CVar [[r.SceneColorFringeQuality:1]]
[2020.09.10-09.48.42:256][  0]LogConfig: Setting CVar [[r.EyeAdaptationQuality:2]]
[2020.09.10-09.48.42:256][  0]LogConfig: Setting CVar [[r.BloomQuality:5]]
[2020.09.10-09.48.42:256][  0]LogConfig: Setting CVar [[r.FastBlurThreshold:100]]
[2020.09.10-09.48.42:256][  0]LogConfig: Setting CVar [[r.Upscale.Quality:3]]
[2020.09.10-09.48.42:256][  0]LogConfig: Setting CVar [[r.Tonemapper.GrainQuantization:1]]
[2020.09.10-09.48.42:256][  0]LogConfig: Setting CVar [[r.LightShaftQuality:1]]
[2020.09.10-09.48.42:256][  0]LogConfig: Setting CVar [[r.Filter.SizeScale:1]]
[2020.09.10-09.48.42:256][  0]LogConfig: Setting CVar [[r.Tonemapper.Quality:5]]
[2020.09.10-09.48.42:256][  0]LogConfig: Setting CVar [[r.DOF.Gather.AccumulatorQuality:1        ; higher gathering accumulator quality]]
[2020.09.10-09.48.42:256][  0]LogConfig: Setting CVar [[r.DOF.Gather.PostfilterMethod:1          ; Median3x3 postfilering method]]
[2020.09.10-09.48.42:256][  0]LogConfig: Setting CVar [[r.DOF.Gather.EnableBokehSettings:0       ; no bokeh simulation when gathering]]
[2020.09.10-09.48.42:256][  0]LogConfig: Setting CVar [[r.DOF.Gather.RingCount:4                 ; medium number of samples when gathering]]
[2020.09.10-09.48.42:257][  0]LogConfig: Setting CVar [[r.DOF.Scatter.ForegroundCompositing:1    ; additive foreground scattering]]
[2020.09.10-09.48.42:257][  0]LogConfig: Setting CVar [[r.DOF.Scatter.BackgroundCompositing:2    ; additive background scattering]]
[2020.09.10-09.48.42:257][  0]LogConfig: Setting CVar [[r.DOF.Scatter.EnableBokehSettings:1      ; bokeh simulation when scattering]]
[2020.09.10-09.48.42:257][  0]LogConfig: Setting CVar [[r.DOF.Scatter.MaxSpriteRatio:0.1         ; only a maximum of 10% of scattered bokeh]]
[2020.09.10-09.48.42:257][  0]LogConfig: Setting CVar [[r.DOF.Recombine.Quality:1                ; cheap slight out of focus]]
[2020.09.10-09.48.42:257][  0]LogConfig: Setting CVar [[r.DOF.Recombine.EnableBokehSettings:0    ; no bokeh simulation on slight out of focus]]
[2020.09.10-09.48.42:257][  0]LogConfig: Setting CVar [[r.DOF.TemporalAAQuality:1                ; more stable temporal accumulation]]
[2020.09.10-09.48.42:257][  0]LogConfig: Setting CVar [[r.DOF.Kernel.MaxForegroundRadius:0.025]]
[2020.09.10-09.48.42:257][  0]LogConfig: Setting CVar [[r.DOF.Kernel.MaxBackgroundRadius:0.025]]
[2020.09.10-09.48.42:257][  0]LogConfig: Applying CVar settings from Section [TextureQuality@3] File [C:/Users/Piitu/Documents/peli/peli/Saved/Config/Windows/Scalability.ini]
[2020.09.10-09.48.42:257][  0]LogConfig: Setting CVar [[r.Streaming.MipBias:0]]
[2020.09.10-09.48.42:257][  0]LogConfig: Setting CVar [[r.Streaming.AmortizeCPUToGPUCopy:0]]
[2020.09.10-09.48.42:257][  0]LogConfig: Setting CVar [[r.Streaming.MaxNumTexturesToStreamPerFrame:0]]
[2020.09.10-09.48.42:257][  0]LogConfig: Setting CVar [[r.Streaming.Boost:1]]
[2020.09.10-09.48.42:257][  0]LogConfig: Setting CVar [[r.MaxAnisotropy:8]]
[2020.09.10-09.48.42:257][  0]LogConfig: Setting CVar [[r.VT.MaxAnisotropy:8]]
[2020.09.10-09.48.42:257][  0]LogConfig: Setting CVar [[r.Streaming.LimitPoolSizeToVRAM:0]]
[2020.09.10-09.48.42:257][  0]LogConfig: Setting CVar [[r.Streaming.PoolSize:1000]]
[2020.09.10-09.48.42:257][  0]LogConfig: Setting CVar [[r.Streaming.MaxEffectiveScreenSize:0]]
[2020.09.10-09.48.42:257][  0]LogConfig: Applying CVar settings from Section [EffectsQuality@3] File [C:/Users/Piitu/Documents/peli/peli/Saved/Config/Windows/Scalability.ini]
[2020.09.10-09.48.42:257][  0]LogConfig: Setting CVar [[r.TranslucencyLightingVolumeDim:64]]
[2020.09.10-09.48.42:257][  0]LogConfig: Setting CVar [[r.RefractionQuality:2]]
[2020.09.10-09.48.42:257][  0]LogConfig: Setting CVar [[r.SSR.Quality:3]]
[2020.09.10-09.48.42:257][  0]LogConfig: Setting CVar [[r.SSR.HalfResSceneColor:0]]
[2020.09.10-09.48.42:257][  0]LogConfig: Setting CVar [[r.SceneColorFormat:4]]
[2020.09.10-09.48.42:257][  0]LogConfig: Setting CVar [[r.DetailMode:2]]
[2020.09.10-09.48.42:257][  0]LogConfig: Setting CVar [[r.TranslucencyVolumeBlur:1]]
[2020.09.10-09.48.42:257][  0]LogConfig: Setting CVar [[r.MaterialQualityLevel:1 ; High quality]]
[2020.09.10-09.48.42:257][  0]LogConfig: Setting CVar [[r.SSS.Scale:1]]
[2020.09.10-09.48.42:257][  0]LogConfig: Setting CVar [[r.SSS.SampleSet:2]]
[2020.09.10-09.48.42:257][  0]LogConfig: Setting CVar [[r.SSS.Quality:1]]
[2020.09.10-09.48.42:257][  0]LogConfig: Setting CVar [[r.SSS.HalfRes:0]]
[2020.09.10-09.48.42:257][  0]LogConfig: Setting CVar [[r.SSGI.Quality:3]]
[2020.09.10-09.48.42:257][  0]LogConfig: Setting CVar [[r.EmitterSpawnRateScale:1.0]]
[2020.09.10-09.48.42:257][  0]LogConfig: Setting CVar [[r.ParticleLightQuality:2]]
[2020.09.10-09.48.42:257][  0]LogConfig: Setting CVar [[r.SkyAtmosphere.AerialPerspectiveLUT.FastApplyOnOpaque:1 ; Always have FastSkyLUT 1 in this case to avoid wrong sky]]
[2020.09.10-09.48.42:257][  0]LogConfig: Setting CVar [[r.SkyAtmosphere.AerialPerspectiveLUT.SampleCountPerSlice:1]]
[2020.09.10-09.48.42:257][  0]LogConfig: Setting CVar [[r.SkyAtmosphere.AerialPerspectiveLUT.DepthResolution:16.0]]
[2020.09.10-09.48.42:257][  0]LogConfig: Setting CVar [[r.SkyAtmosphere.FastSkyLUT:1]]
[2020.09.10-09.48.42:257][  0]LogConfig: Setting CVar [[r.SkyAtmosphere.FastSkyLUT.SampleCountMin:4.0]]
[2020.09.10-09.48.42:257][  0]LogConfig: Setting CVar [[r.SkyAtmosphere.FastSkyLUT.SampleCountMax:32.0]]
[2020.09.10-09.48.42:257][  0]LogConfig: Setting CVar [[r.SkyAtmosphere.SampleCountMin:4.0]]
[2020.09.10-09.48.42:257][  0]LogConfig: Setting CVar [[r.SkyAtmosphere.SampleCountMax:32.0]]
[2020.09.10-09.48.42:257][  0]LogConfig: Setting CVar [[r.SkyAtmosphere.TransmittanceLUT.UseSmallFormat:0]]
[2020.09.10-09.48.42:257][  0]LogConfig: Setting CVar [[r.SkyAtmosphere.TransmittanceLUT.SampleCount:10.0]]
[2020.09.10-09.48.42:257][  0]LogConfig: Setting CVar [[r.SkyAtmosphere.MultiScatteringLUT.SampleCount:15.0]]
[2020.09.10-09.48.42:257][  0]LogConfig: Applying CVar settings from Section [FoliageQuality@3] File [C:/Users/Piitu/Documents/peli/peli/Saved/Config/Windows/Scalability.ini]
[2020.09.10-09.48.42:257][  0]LogConfig: Setting CVar [[foliage.DensityScale:1.0]]
[2020.09.10-09.48.42:257][  0]LogConfig: Setting CVar [[grass.DensityScale:1.0]]
[2020.09.10-09.48.42:257][  0]LogConfig: Applying CVar settings from Section [ShadingQuality@3] File [C:/Users/Piitu/Documents/peli/peli/Saved/Config/Windows/Scalability.ini]
[2020.09.10-09.48.42:257][  0]LogConfig: Setting CVar [[r.HairStrands.SkyLighting.SampleCount:16]]
[2020.09.10-09.48.42:257][  0]LogConfig: Setting CVar [[r.HairStrands.SkyLighting.JitterIntegration:0]]
[2020.09.10-09.48.42:257][  0]LogConfig: Setting CVar [[r.HairStrands.SkyAO.SampleCount:16]]
[2020.09.10-09.48.42:257][  0]LogConfig: Setting CVar [[r.HairStrands.DeepShadow.SuperSampling:0]]
[2020.09.10-09.48.42:257][  0]LogConfig: Setting CVar [[r.HairStrands.VisibilityPPLL:0]]
[2020.09.10-09.48.42:257][  0]LogConfig: Setting CVar [[r.HairStrands.RasterizationScale:0.5]]
[2020.09.10-09.48.42:257][  0]LogConfig: Setting CVar [[r.HairStrands.VelocityRasterizationScale:1]]
[2020.09.10-09.48.42:257][  0]LogConfig: Applying CVar settings from Section [Startup] File [../../../Engine/Config/ConsoleVariables.ini]
[2020.09.10-09.48.42:257][  0]LogConfig: Setting CVar [[net.UseAdaptiveNetUpdateFrequency:0]]
[2020.09.10-09.48.42:257][  0]LogConfig: Setting CVar [[p.chaos.AllowCreatePhysxBodies:1]]
[2020.09.10-09.48.42:258][  0]LogConfig: Setting CVar [[fx.SkipVectorVMBackendOptimizations:1]]
[2020.09.10-09.48.42:258][  0]LogConfig: Applying CVar settings from Section [ConsoleVariables] File [C:/Users/Piitu/Documents/peli/peli/Saved/Config/Windows/Engine.ini]
[2020.09.10-09.48.42:258][  0]LogInit: Computer: DESKTOP-4HFQJ6D
[2020.09.10-09.48.42:258][  0]LogInit: User: Piitu
[2020.09.10-09.48.42:258][  0]LogInit: CPU Page size=4096, Cores=4
[2020.09.10-09.48.42:258][  0]LogInit: High frequency timer resolution =10.000000 MHz
[2020.09.10-09.48.42:258][  0]LogMemory: Memory total: Physical=16.0GB (16GB approx)
[2020.09.10-09.48.42:258][  0]LogMemory: Platform Memory Stats for Windows
[2020.09.10-09.48.42:258][  0]LogMemory: Process Physical Memory: 113.34 MB used, 113.34 MB peak
[2020.09.10-09.48.42:258][  0]LogMemory: Process Virtual Memory: 95.95 MB used, 95.95 MB peak
[2020.09.10-09.48.42:258][  0]LogMemory: Physical Memory: 5360.57 MB used,  10972.36 MB free, 16332.93 MB total
[2020.09.10-09.48.42:258][  0]LogMemory: Virtual Memory: 5143.14 MB used,  134212584.00 MB free, 134217728.00 MB total
[2020.09.10-09.48.42:263][  0]LogWindows: WindowsPlatformFeatures enabled
[2020.09.10-09.48.42:298][  0]LogInit: Physics initialised using underlying interface: PhysX
[2020.09.10-09.48.42:301][  0]LogInit: Using OS detected language (en-US).
[2020.09.10-09.48.42:301][  0]LogInit: Using OS detected locale (en-FI).
[2020.09.10-09.48.42:304][  0]LogTextLocalizationManager: No specific localization for 'en-US' exists, so the 'en' localization will be used.
[2020.09.10-09.48.42:516][  0]LogInit: Setting process to per monitor DPI aware
[2020.09.10-09.48.42:588][  0]LogSlate: New Slate User Created.  User Index 0, Is Virtual User: 0
[2020.09.10-09.48.42:588][  0]LogSlate: Slate User Registered.  User Index 0, Is Virtual User: 0
[2020.09.10-09.48.42:787][  0]LogHMD: Failed to initialize OpenVR with code 110
[2020.09.10-09.48.42:787][  0]LogD3D11RHI: D3D11 min allowed feature level: 11_0
[2020.09.10-09.48.42:787][  0]LogD3D11RHI: D3D11 max allowed feature level: 11_0
[2020.09.10-09.48.42:787][  0]LogD3D11RHI: D3D11 adapters:
[2020.09.10-09.48.42:881][  0]LogD3D11RHI:    0. 'NVIDIA GeForce GTX 780 Ti' (Feature Level 11_0)
[2020.09.10-09.48.42:881][  0]LogD3D11RHI:       3029/0/8166 MB DedicatedVideo/DedicatedSystem/SharedSystem, Outputs:3, VendorId:0x10de
[2020.09.10-09.48.42:884][  0]LogD3D11RHI:    1. 'Microsoft Basic Render Driver' (Feature Level 11_0)
[2020.09.10-09.48.42:884][  0]LogD3D11RHI:       0/0/8166 MB DedicatedVideo/DedicatedSystem/SharedSystem, Outputs:0, VendorId:0x1414
[2020.09.10-09.48.42:884][  0]LogD3D11RHI: Chosen D3D11 Adapter: 0
[2020.09.10-09.48.42:896][  0]LogD3D11RHI: Creating new Direct3DDevice
[2020.09.10-09.48.42:896][  0]LogD3D11RHI:     GPU DeviceId: 0x100a (for the marketing name, search the web for "GPU Device Id")
[2020.09.10-09.48.42:896][  0]LogWindows: EnumDisplayDevices:
[2020.09.10-09.48.42:896][  0]LogWindows:    0. 'NVIDIA GeForce GTX 780 Ti' (P:1 D:1)
[2020.09.10-09.48.42:896][  0]LogWindows:    1. 'NVIDIA GeForce GTX 780 Ti' (P:0 D:1)
[2020.09.10-09.48.42:897][  0]LogWindows:    2. 'NVIDIA GeForce GTX 780 Ti' (P:0 D:1)
[2020.09.10-09.48.42:897][  0]LogWindows:    3. 'NVIDIA GeForce GTX 780 Ti' (P:0 D:0)
[2020.09.10-09.48.42:897][  0]LogWindows: DebugString: FoundDriverCount:4 
[2020.09.10-09.48.42:897][  0]LogD3D11RHI:     Adapter Name: NVIDIA GeForce GTX 780 Ti
[2020.09.10-09.48.42:897][  0]LogD3D11RHI:   Driver Version: 452.06 (internal:27.21.14.5206, unified:452.06)
[2020.09.10-09.48.42:897][  0]LogD3D11RHI:      Driver Date: 8-12-2020
[2020.09.10-09.48.42:898][  0]LogRHI: Texture pool is 2120 MB (70% of 3029 MB)
[2020.09.10-09.48.42:944][  0]LogD3D11RHI: RHI does not have support for 64 bit atomics
[2020.09.10-09.48.42:946][  0]LogD3D11RHI: [Aftermath] Enabled and primed
[2020.09.10-09.48.42:946][  0]LogD3D11RHI: Async texture creation enabled
[2020.09.10-09.48.42:973][  0]LogD3D11RHI: GPU Timing Frequency: 1000.000000 (Debug: 2 1)
[2020.09.10-09.48.43:305][  0]LogTargetPlatformManager: Display: Loaded TargetPlatform 'AllDesktop'
[2020.09.10-09.48.43:331][  0]LogTargetPlatformManager: Display: Loaded TargetPlatform 'Android'
[2020.09.10-09.48.43:331][  0]LogTargetPlatformManager: Display: Loaded TargetPlatform 'Android_ASTC'
[2020.09.10-09.48.43:331][  0]LogTargetPlatformManager: Display: Loaded TargetPlatform 'Android_DXT'
[2020.09.10-09.48.43:331][  0]LogTargetPlatformManager: Display: Loaded TargetPlatform 'Android_ETC2'
[2020.09.10-09.48.43:331][  0]LogTargetPlatformManager: Display: Loaded TargetPlatform 'AndroidClient'
[2020.09.10-09.48.43:331][  0]LogTargetPlatformManager: Display: Loaded TargetPlatform 'Android_ASTCClient'
[2020.09.10-09.48.43:331][  0]LogTargetPlatformManager: Display: Loaded TargetPlatform 'Android_DXTClient'
[2020.09.10-09.48.43:331][  0]LogTargetPlatformManager: Display: Loaded TargetPlatform 'Android_ETC2Client'
[2020.09.10-09.48.43:331][  0]LogTargetPlatformManager: Display: Loaded TargetPlatform 'Android_Multi'
[2020.09.10-09.48.43:331][  0]LogTargetPlatformManager: Display: Loaded TargetPlatform 'Android_MultiClient'
[2020.09.10-09.48.43:354][  0]LogTargetPlatformManager: Display: Loaded TargetPlatform 'IOSClient'
[2020.09.10-09.48.43:354][  0]LogTargetPlatformManager: Display: Loaded TargetPlatform 'IOS'
[2020.09.10-09.48.43:367][  0]LogTargetPlatformManager: Display: Loaded TargetPlatform 'Linux'
[2020.09.10-09.48.43:377][  0]LogTargetPlatformManager: Display: Loaded TargetPlatform 'LinuxNoEditor'
[2020.09.10-09.48.43:387][  0]LogTargetPlatformManager: Display: Loaded TargetPlatform 'LinuxClient'
[2020.09.10-09.48.43:397][  0]LogTargetPlatformManager: Display: Loaded TargetPlatform 'LinuxServer'
[2020.09.10-09.48.43:407][  0]LogTargetPlatformManager: Display: Loaded TargetPlatform 'LinuxAArch64NoEditor'
[2020.09.10-09.48.43:421][  0]LogTargetPlatformManager: Display: Loaded TargetPlatform 'LinuxAArch64Client'
[2020.09.10-09.48.43:430][  0]LogTargetPlatformManager: Display: Loaded TargetPlatform 'LinuxAArch64Server'
[2020.09.10-09.48.43:459][  0]LogTargetPlatformManager: Display: Loaded TargetPlatform 'Lumin'
[2020.09.10-09.48.43:459][  0]LogTargetPlatformManager: Display: Loaded TargetPlatform 'LuminClient'
[2020.09.10-09.48.43:476][  0]LogTargetPlatformManager: Display: Loaded TargetPlatform 'TVOSClient'
[2020.09.10-09.48.43:476][  0]LogTargetPlatformManager: Display: Loaded TargetPlatform 'TVOS'
[2020.09.10-09.48.43:486][  0]LogTargetPlatformManager: Display: Loaded TargetPlatform 'WindowsNoEditor'
[2020.09.10-09.48.43:496][  0]LogTargetPlatformManager: Display: Loaded TargetPlatform 'Windows'
[2020.09.10-09.48.43:507][  0]LogTargetPlatformManager: Display: Loaded TargetPlatform 'WindowsClient'
[2020.09.10-09.48.43:517][  0]LogTargetPlatformManager: Display: Loaded TargetPlatform 'WindowsServer'
[2020.09.10-09.48.43:517][  0]LogTargetPlatformManager: Display: Building Assets For Windows
[2020.09.10-09.48.43:524][  0]LogAudioDebug: Display: Lib vorbis DLL was dynamically loaded.
[2020.09.10-09.48.43:584][  0]LogShaderCompilers: Guid format shader working directory is -4 characters bigger than the processId version (../../../../../../Users/Piitu/Documents/peli/peli/Intermediate/Shaders/WorkingDirectory/10268/).
[2020.09.10-09.48.43:584][  0]LogShaderCompilers: Cleaned the shader compiler working directory 'C:/Users/Piitu/AppData/Local/Temp/UnrealShaderWorkingDir/C27A789349C0F3074374A1BF62DC10A1/'.
[2020.09.10-09.48.43:585][  0]LogXGEController: Cleaning working directory: C:/Users/Piitu/AppData/Local/Temp/UnrealXGEWorkingDir/
[2020.09.10-09.48.43:585][  0]LogXGEController: Cannot use XGE Controller as Incredibuild is not installed on this machine.
[2020.09.10-09.48.43:585][  0]LogShaderCompilers: Cannot use XGE Shader Compiler as Incredibuild is not installed on this machine.
[2020.09.10-09.48.43:585][  0]LogShaderCompilers: Display: Using Local Shader Compiler.
[2020.09.10-09.48.44:470][  0]LogDerivedDataCache: Display: Max Cache Size: 512 MB
[2020.09.10-09.48.44:534][  0]LogDerivedDataCache: Loaded boot cache 0.06s 75MB C:/Users/Piitu/AppData/Local/UnrealEngine/4.25/DerivedDataCache/Boot.ddc.
[2020.09.10-09.48.44:534][  0]LogDerivedDataCache: Display: Loaded Boot cache: C:/Users/Piitu/AppData/Local/UnrealEngine/4.25/DerivedDataCache/Boot.ddc
[2020.09.10-09.48.44:535][  0]LogDerivedDataCache: FDerivedDataBackendGraph:  Pak pak cache file ../../../../../../Users/Piitu/Documents/peli/peli/DerivedDataCache/DDC.ddp not found, will not use a pak cache.
[2020.09.10-09.48.44:535][  0]LogDerivedDataCache: Unable to find inner node Pak for hierarchical cache Hierarchy.
[2020.09.10-09.48.44:535][  0]LogDerivedDataCache: FDerivedDataBackendGraph:  CompressedPak pak cache file ../../../../../../Users/Piitu/Documents/peli/peli/DerivedDataCache/Compressed.ddp not found, will not use a pak cache.
[2020.09.10-09.48.44:535][  0]LogDerivedDataCache: Unable to find inner node CompressedPak for hierarchical cache Hierarchy.
[2020.09.10-09.48.44:546][  0]LogDerivedDataCache: Display: Pak cache opened for reading ../../../Engine/DerivedDataCache/Compressed.ddp.
[2020.09.10-09.48.44:546][  0]LogDerivedDataCache: FDerivedDataBackendGraph:  EnterprisePak pak cache file ../../../Enterprise/DerivedDataCache/Compressed.ddp not found, will not use a pak cache.
[2020.09.10-09.48.44:546][  0]LogDerivedDataCache: Unable to find inner node EnterprisePak for hierarchical cache Hierarchy.
[2020.09.10-09.48.44:548][  0]LogDerivedDataCache: Using Local data cache path C:/Users/Piitu/AppData/Local/UnrealEngine/Common/DerivedDataCache: Writable
[2020.09.10-09.48.44:548][  0]LogDerivedDataCache: Shared data cache path not found in *engine.ini, will not use an Shared cache.
[2020.09.10-09.48.44:548][  0]LogDerivedDataCache: Unable to find inner node Shared for hierarchical cache Hierarchy.
[2020.09.10-09.48.44:605][  0]LogSlate: Using FreeType 2.10.0
[2020.09.10-09.48.44:606][  0]LogSlate: SlateFontServices - WITH_FREETYPE: 1, WITH_HARFBUZZ: 1
[2020.09.10-09.48.44:635][  0]LogAssetRegistry: FAssetRegistry took 0.0040 seconds to start up
[2020.09.10-09.48.44:912][  0]LogInit: Selected Device Profile: [Windows]
[2020.09.10-09.48.45:048][  0]LogMeshReduction: Using QuadricMeshReduction for automatic static mesh reduction
[2020.09.10-09.48.45:048][  0]LogMeshReduction: Using SimplygonMeshReduction for automatic skeletal mesh reduction
[2020.09.10-09.48.45:048][  0]LogMeshReduction: Using ProxyLODMeshReduction for automatic mesh merging
[2020.09.10-09.48.45:048][  0]LogMeshReduction: No distributed automatic mesh merging module available
[2020.09.10-09.48.45:049][  0]LogMeshMerging: No distributed automatic mesh merging module available
[2020.09.10-09.48.45:109][  0]LogNetVersion: peli 1.0.0, NetCL: 13144385, EngineNetVer: 14, GameNetVer: 0 (Checksum: 3113519855)
[2020.09.10-09.48.45:607][  0]LogAISub: UAISubsystem::UAISubsystem AISubsystem (00000205A198DBC0), frame # 0
[2020.09.10-09.48.45:607][  0]LogAISub: UAISubsystem::UAISubsystem AIPerceptionSystem (00000205A28D3740), frame # 0
[2020.09.10-09.48.45:608][  0]LogAISub: UAISubsystem::UAISubsystem EnvQueryManager (00000205A2931E00), frame # 0
[2020.09.10-09.48.45:689][  0]LogPackageLocalizationCache: Processed 19 localized package path(s) for 1 prioritized culture(s) in 0.075395 seconds
[2020.09.10-09.48.45:694][  0]LogUObjectArray: 15917 objects as part of root set at end of initial load.
[2020.09.10-09.48.45:694][  0]LogUObjectAllocator: 3965568 out of 0 bytes used by permanent object pool.
[2020.09.10-09.48.45:694][  0]LogUObjectArray: CloseDisregardForGC: 0/0 objects in disregard for GC pool
[2020.09.10-09.48.46:057][  0]LogTcpMessaging: Initializing TcpMessaging bridge
[2020.09.10-09.48.46:062][  0]LogUdpMessaging: Initializing bridge on interface 0.0.0.0:0 to multicast group 230.0.0.1:6666.
[2020.09.10-09.48.46:141][  0]SourceControl: Source control is disabled
[2020.09.10-09.48.46:141][  0]SourceControl: Source control is disabled
[2020.09.10-09.48.46:144][  0]SourceControl: Source control is disabled
[2020.09.10-09.48.46:147][  0]SourceControl: Source control is disabled
[2020.09.10-09.48.46:154][  0]SourceControl: Source control is disabled
[2020.09.10-09.48.46:395][  0]LogAndroidPermission: UAndroidPermissionCallbackProxy::GetInstance
[2020.09.10-09.48.46:415][  0]LogAudioCaptureCore: Display: No Audio Capture implementations found. Audio input will be silent.
[2020.09.10-09.48.46:415][  0]LogAudioCaptureCore: Display: No Audio Capture implementations found. Audio input will be silent.
[2020.09.10-09.48.46:469][  0]LogOcInput: OculusInput pre-init called
[2020.09.10-09.48.46:480][  0]LogWindows: Failed to load 'OVRPlugin.dll' (GetLastError=126)
[2020.09.10-09.48.46:481][  0]LogWindows: File 'OVRPlugin.dll' does not exist
[2020.09.10-09.48.46:545][  0]LogEngine: Initializing Engine...
[2020.09.10-09.48.46:547][  0]LogHMD: Failed to initialize OpenVR with code 110
[2020.09.10-09.48.46:547][  0]LogMagicLeap: Warning: VR disabled because ZI is not enabled.  To enable, in the editor, Edit -> Project Settings -> Plugins -> Magic Leap Plugin -> Enable Zero Iteration
[2020.09.10-09.48.46:548][  0]LogStats: UGameplayTagsManager::InitializeManager -  0.000 s
[2020.09.10-09.48.46:673][  0]LogInit: Initializing FReadOnlyCVARCache
[2020.09.10-09.48.46:683][  0]LogAIModule: Creating AISystem for world Untitled
[2020.09.10-09.48.46:684][  0]LogAISub: UAISubsystem::UAISubsystem EnvQueryManager (00000205A536FC00), frame # 0
[2020.09.10-09.48.46:684][  0]LogAISub: UAISubsystem::UAISubsystem AIPerceptionSystem (00000205A8A0CA40), frame # 0
[2020.09.10-09.48.46:701][  0]LogAudioMixer: Display: Audio Mixer Platform Settings:
[2020.09.10-09.48.46:701][  0]LogAudioMixer: Display: 	Sample Rate:						  48000
[2020.09.10-09.48.46:701][  0]LogAudioMixer: Display: 	Callback Buffer Frame Size Requested: 1024
[2020.09.10-09.48.46:701][  0]LogAudioMixer: Display: 	Callback Buffer Frame Size To Use:	  1024
[2020.09.10-09.48.46:701][  0]LogAudioMixer: Display: 	Number of buffers to queue:			  2
[2020.09.10-09.48.46:701][  0]LogAudioMixer: Display: 	Max Channels (voices):				  32
[2020.09.10-09.48.46:701][  0]LogAudioMixer: Display: 	Number of Async Source Workers:		  0
[2020.09.10-09.48.46:701][  0]LogAudio: Display: AudioDevice MaxSources: 32
[2020.09.10-09.48.46:702][  0]LogAudio: Display: Using built-in audio occlusion.
[2020.09.10-09.48.46:702][  0]LogAudioMixer: Display: Initializing audio mixer.
[2020.09.10-09.48.46:720][  0]LogAudioMixer: Display: 0: FrontLeft
[2020.09.10-09.48.46:720][  0]LogAudioMixer: Display: 1: FrontRight
[2020.09.10-09.48.46:763][  0]LogAudioMixer: Display: Using Audio Device Digital Audio (S/PDIF) (High Definition Audio Device)
[2020.09.10-09.48.46:766][  0]LogAudioMixer: Display: Initializing Sound Submixes...
[2020.09.10-09.48.46:769][  0]LogAudioMixer: Display: Creating Master Submix 'MasterSubmixDefault'
[2020.09.10-09.48.46:769][  0]LogAudioMixer: Display: Creating Master Submix 'MasterReverbSubmixDefault'
[2020.09.10-09.48.46:770][  0]LogAudioMixer: Display: Creating Master Submix 'MasterEQSubmixDefault'
[2020.09.10-09.48.46:771][  0]LogInit: FAudioDevice initialized.
[2020.09.10-09.48.46:771][  0]LogNetVersion: Set ProjectVersion to 1.0.0.0. Version Checksum will be recalculated on next use.
[2020.09.10-09.48.46:860][  0]LogDerivedDataCache: Saved boot cache 0.09s 75MB C:/Users/Piitu/AppData/Local/UnrealEngine/4.25/DerivedDataCache/Boot.ddc.
[2020.09.10-09.48.46:866][  0]LogInit: Texture streaming: Enabled
[2020.09.10-09.48.46:882][  0]LogEngineSessionManager: EngineSessionManager initialized
[2020.09.10-09.48.46:882][  0]LogEngineSessionManager: EngineSessionManager sent abnormal shutdown report. Type=Crashed, SessionId={391AD951-46F0-B003-CCD3-9EA337F88850}
[2020.09.10-09.48.46:882][  0]LogEditorSessionSummary: Verbose: Initializing EditorSessionSummaryWriter for editor session tracking
[2020.09.10-09.48.46:884][  0]LogEditorSessionSummary: EditorSessionSummaryWriter initialized
[2020.09.10-09.48.46:936][  0]LogInit: Transaction tracking system initialized
[2020.09.10-09.48.46:957][  0]BlueprintLog: New page: Editor Load
[2020.09.10-09.48.47:030][  0]LocalizationService: Localization service is disabled
[2020.09.10-09.48.47:188][  0]LogCook: Display: Max memory allowance for cook 16384mb min free memory 0mb
[2020.09.10-09.48.47:188][  0]LogCook: Display: Mobile HDR setting 0
[2020.09.10-09.48.47:325][  0]LogFileCache: Scanning file cache for directory 'C:/Users/Piitu/Documents/peli/peli/Content/' took 0.00s
[2020.09.10-09.48.47:544][  0]SourceControl: Source control is disabled
[2020.09.10-09.48.47:544][  0]LogUnrealEdMisc: Loading editor; pre map load, took 6.967
[2020.09.10-09.48.47:544][  0]Cmd: MAP LOAD FILE="../../../../../../Users/Piitu/Documents/peli/peli/Content/2DSideScrollerBP/Maps/2DSideScrollerExampleMap.umap" TEMPLATE=0 SHOWPROGRESS=1 FEATURELEVEL=3
[2020.09.10-09.48.47:544][  0]LightingResults: New page: Lighting Build
[2020.09.10-09.48.47:545][  0]LogWorld: UWorld::CleanupWorld for Untitled, bSessionEnded=true, bCleanupResources=true
[2020.09.10-09.48.47:545][  0]LogSlate: InvalidateAllWidgets triggered.  All widgets were invalidated
[2020.09.10-09.48.47:545][  0]MapCheck: New page: Map Check
[2020.09.10-09.48.47:545][  0]LightingResults: New page: Lighting Build
[2020.09.10-09.48.47:554][  0]LogAISub: UAISubsystem::~UAISubsystem EnvQueryManager (00000205A536FC00), frame # 0
[2020.09.10-09.48.47:554][  0]LogAISub: UAISubsystem::~UAISubsystem AIPerceptionSystem (00000205A8A0CA40), frame # 0
[2020.09.10-09.48.47:555][  0]LogUObjectHash: Compacting FUObjectHashTables data took   0.74ms
[2020.09.10-09.48.47:638][  0]LogAIModule: Creating AISystem for world 2DSideScrollerExampleMap
[2020.09.10-09.48.47:638][  0]LogAISub: UAISubsystem::UAISubsystem EnvQueryManager (00000205977E3E00), frame # 0
[2020.09.10-09.48.47:638][  0]LogAISub: UAISubsystem::UAISubsystem AIPerceptionSystem (0000020597914680), frame # 0
[2020.09.10-09.48.47:648][  0]LogEditorServer: Finished looking for orphan Actors (0.000 secs)
[2020.09.10-09.48.47:661][  0]LogUObjectHash: Compacting FUObjectHashTables data took   1.49ms
[2020.09.10-09.48.47:662][  0]Cmd: MAP CHECKDEP NOCLEARLOG
[2020.09.10-09.48.47:662][  0]MapCheck: Map check complete: 0 Error(s), 0 Warning(s), took 0,169ms to complete.
[2020.09.10-09.48.47:662][  0]LogFileHelpers: Loading map '2DSideScrollerExampleMap' took 0.118
[2020.09.10-09.48.47:664][  0]LogUnrealEdMisc: Total Editor Startup Time, took 7.087
[2020.09.10-09.48.47:858][  0]LogSlate: Updating window title bar state: overlay mode, drag disabled, window buttons hidden, title bar hidden
[2020.09.10-09.48.47:866][  0]LogSlate: Updating window title bar state: overlay mode, drag disabled, window buttons hidden, title bar hidden
[2020.09.10-09.48.47:873][  0]LogSlate: Updating window title bar state: overlay mode, drag disabled, window buttons hidden, title bar hidden
[2020.09.10-09.48.47:882][  0]LogSlate: Updating window title bar state: overlay mode, drag disabled, window buttons hidden, title bar hidden
[2020.09.10-09.48.47:889][  0]LogCollectionManager: Loaded 0 collections in 0.001633 seconds
[2020.09.10-09.48.47:903][  0]LogFileCache: Scanning file cache for directory 'C:/Users/Piitu/Documents/peli/peli/Saved/Collections/' took 0.00s
[2020.09.10-09.48.47:903][  0]LogFileCache: Scanning file cache for directory 'C:/Users/Piitu/Documents/peli/peli/Content/Developers/Piitu/Collections/' took 0.00s
[2020.09.10-09.48.47:903][  0]LogFileCache: Scanning file cache for directory 'C:/Users/Piitu/Documents/peli/peli/Content/Collections/' took 0.00s
[2020.09.10-09.48.47:903][  0]LogContentBrowser: Native class hierarchy populated in 0.0098 seconds. Added 3427 classes and 821 folders.
[2020.09.10-09.48.47:906][  0]LogContentBrowser: Native class hierarchy updated for 'WidgetCarousel' in 0.0003 seconds. Added 0 classes and 0 folders.
[2020.09.10-09.48.47:958][  0]LogContentBrowser: Native class hierarchy updated for 'AddContentDialog' in 0.0003 seconds. Added 0 classes and 0 folders.
[2020.09.10-09.48.47:959][  0]LogContentBrowser: Native class hierarchy updated for 'SceneOutliner' in 0.0003 seconds. Added 2 classes and 0 folders.
[2020.09.10-09.48.47:998][  0]LogSlate: Took 0.000364 seconds to synchronously load lazily loaded font '../../../Engine/Content/Slate/Fonts/Roboto-Regular.ttf' (155K)
[2020.09.10-09.48.48:000][  0]LogSlate: Took 0.000195 seconds to synchronously load lazily loaded font '../../../Engine/Content/Slate/Fonts/Roboto-Bold.ttf' (160K)
[2020.09.10-09.48.48:005][  0]LogSlate: Took 0.000136 seconds to synchronously load lazily loaded font '../../../Engine/Content/Editor/Slate/Fonts/FontAwesome.ttf' (139K)
[2020.09.10-09.48.48:177][  0]LogRenderer: Reallocating scene render targets to support 1208x572 Format 10 NumSamples 1 (Frame:1).
[2020.09.10-09.48.48:303][  0]LogContentBrowser: Native class hierarchy updated for 'HierarchicalLODOutliner' in 0.0003 seconds. Added 0 classes and 0 folders.
[2020.09.10-09.48.48:303][  0]LogLoad: (Engine Initialization) Total time: 7.73 seconds
[2020.09.10-09.48.48:303][  0]LogLoad: (Engine Initialization) Total Blueprint compile time: 0.00 seconds
[2020.09.10-09.48.48:344][  0]LogAssetRegistry: Asset discovery search completed in 3.7112 seconds
[2020.09.10-09.48.48:350][  0]LogCollectionManager: Fixed up redirectors for 0 collections in 0.000004 seconds (updated 0 objects)
[2020.09.10-09.48.48:351][  0]LogContentStreaming: Texture pool size now 1000 MB
[2020.09.10-09.48.48:380][  0]LogSlate: Took 0.000151 seconds to synchronously load lazily loaded font '../../../Engine/Content/Slate/Fonts/Roboto-Light.ttf' (167K)
[2020.09.10-09.49.16:533][139]LogSlate: Took 0.000308 seconds to synchronously load lazily loaded font '../../../Engine/Content/Slate/Fonts/Roboto-BoldCondensed.ttf' (158K)
[2020.09.10-09.49.19:763][500]LogSlate: Took 0.000197 seconds to synchronously load lazily loaded font '../../../Engine/Content/Slate/Fonts/Roboto-Light.ttf' (167K)
[2020.09.10-09.49.19:793][500]LogAssetEditorSubsystem: Opening Asset editor for Material /Game/StarterContent/Materials/NewMaterial.NewMaterial
[2020.09.10-09.49.19:794][500]LogMaterial: Display: Missing cached shader map for material NewMaterial, compiling. 
[2020.09.10-09.49.20:104][500]LogMaterial: Display: Missing cached shader map for material NewMaterial, compiling. 
[2020.09.10-09.49.20:120][500]LogShaderCompilers: Display: Worker (1/5): shaders left to compile 9
[2020.09.10-09.49.20:120][500]LogShaderCompilers: Display: Worker (2/5): shaders left to compile 8
[2020.09.10-09.49.20:120][500]LogShaderCompilers: Display: Worker (3/5): shaders left to compile 7
[2020.09.10-09.49.20:120][500]LogShaderCompilers: Display: Worker (4/5): shaders left to compile 6
[2020.09.10-09.49.21:039][526]LogShaderCompilers: Display: Worker (3/5): shaders left to compile 5
[2020.09.10-09.49.21:330][541]LogShaderCompilers: Display: Worker (2/5): shaders left to compile 4
[2020.09.10-09.49.21:518][549]LogShaderCompilers: Display: Worker (1/5): shaders left to compile 3
[2020.09.10-09.49.21:518][549]LogShaderCompilers: Display: Worker (4/5): shaders left to compile 2
[2020.09.10-09.49.21:956][563]LogShaderCompilers: Display: Worker (2/5): shaders left to compile 1
[2020.09.10-09.49.22:477][585]MaterialEditorStats: Base pass shader: 117 instructions
[2020.09.10-09.49.22:477][585]MaterialEditorStats: Base pass shader with Volumetric Lightmap: 191 instructions
[2020.09.10-09.49.22:477][585]MaterialEditorStats: Base pass vertex shader: 40 instructions
[2020.09.10-09.49.22:477][585]MaterialEditorStats: Texture samplers: 2/16
[2020.09.10-09.50.27:164][944]LogMaterial: Display: Missing cached shader map for material NewMaterial, compiling. 
[2020.09.10-09.50.27:173][944]LogShaderCompilers: Display: Worker (1/5): shaders left to compile 9
[2020.09.10-09.50.27:173][944]LogShaderCompilers: Display: Worker (2/5): shaders left to compile 8
[2020.09.10-09.50.27:173][944]LogShaderCompilers: Display: Worker (3/5): shaders left to compile 7
[2020.09.10-09.50.27:173][944]LogShaderCompilers: Display: Worker (4/5): shaders left to compile 6
[2020.09.10-09.50.28:000][988]LogShaderCompilers: Display: Worker (3/5): shaders left to compile 5
[2020.09.10-09.50.28:227][  0]LogShaderCompilers: Display: Worker (2/5): shaders left to compile 4
[2020.09.10-09.50.28:360][  7]LogShaderCompilers: Display: Worker (4/5): shaders left to compile 3
[2020.09.10-09.50.28:415][ 10]LogShaderCompilers: Display: Worker (1/5): shaders left to compile 2
[2020.09.10-09.50.28:812][ 26]LogShaderCompilers: Display: Worker (2/5): shaders left to compile 1
[2020.09.10-09.50.47:273][541]LogMaterial: Display: Missing cached shader map for material NewMaterial, compiling. 
[2020.09.10-09.50.47:311][542]LogShaderCompilers: Display: Worker (1/5): shaders left to compile 9
[2020.09.10-09.50.47:311][542]LogShaderCompilers: Display: Worker (2/5): shaders left to compile 8
[2020.09.10-09.50.47:311][542]LogShaderCompilers: Display: Worker (3/5): shaders left to compile 7
[2020.09.10-09.50.47:311][542]LogShaderCompilers: Display: Worker (4/5): shaders left to compile 6
[2020.09.10-09.50.47:326][542]LogMaterial: Display: Missing cached shader map for material Material_0, compiling. 
[2020.09.10-09.50.47:952][568]LogShaderCompilers: Display: Worker (3/5): shaders left to compile 9
[2020.09.10-09.50.48:215][580]LogShaderCompilers: Display: Worker (2/5): shaders left to compile 8
[2020.09.10-09.50.48:335][585]LogShaderCompilers: Display: Worker (4/5): shaders left to compile 7
[2020.09.10-09.50.48:377][587]LogShaderCompilers: Display: Worker (1/5): shaders left to compile 6
[2020.09.10-09.50.48:843][610]LogShaderCompilers: Display: Worker (2/5): shaders left to compile 5
[2020.09.10-09.50.48:924][614]LogShaderCompilers: Display: Worker (3/5): shaders left to compile 4
[2020.09.10-09.50.49:251][631]LogShaderCompilers: Display: Worker (1/5): shaders left to compile 2
[2020.09.10-09.50.49:302][634]LogShaderCompilers: Display: Worker (4/5): shaders left to compile 1
[2020.09.10-09.50.49:389][638]MaterialEditorStats: Base pass shader: 117 instructions
[2020.09.10-09.50.49:389][638]MaterialEditorStats: Base pass shader with Volumetric Lightmap: 191 instructions
[2020.09.10-09.50.49:389][638]MaterialEditorStats: Base pass vertex shader: 40 instructions
[2020.09.10-09.50.49:389][638]MaterialEditorStats: Texture samplers: 2/16
[2020.09.10-09.50.51:997][845]LogMaterial: Display: Missing cached shader map for material NewMaterial, compiling. 
[2020.09.10-09.50.51:998][845]LogMaterial: Warning: /Engine/Transient.NewMaterial (no disk path found): Failed to compile Material for platform PCD3D_SM5, Default Material will be used in game.
[2020.09.10-09.50.51:998][845]LogMaterial: Display: 	Function sRGBToLinear: Missing function input 'sRGB'
[2020.09.10-09.50.51:998][845]LogMaterial: Display: 	Function sRGBToLinear: (Node If) If input A must be of type float.
[2020.09.10-09.50.52:001][845]MaterialEditorStats: Error: [SM5] Function sRGBToLinear: Missing function input 'sRGB'
[2020.09.10-09.50.52:001][845]MaterialEditorStats: Error: [SM5] Function sRGBToLinear: (Node If) If input A must be of type float.
[2020.09.10-09.50.52:029][845]LogSlate: Took 0.006944 seconds to synchronously load lazily loaded font '../../../Engine/Content/Slate/Fonts/DroidSansMono.ttf' (77K)
[2020.09.10-09.50.56:534][209]LogMaterial: Display: Missing cached shader map for material NewMaterial, compiling. 
[2020.09.10-09.50.56:570][210]LogShaderCompilers: Display: Worker (1/5): shaders left to compile 9
[2020.09.10-09.50.56:570][210]LogShaderCompilers: Display: Worker (2/5): shaders left to compile 8
[2020.09.10-09.50.56:570][210]LogShaderCompilers: Display: Worker (3/5): shaders left to compile 7
[2020.09.10-09.50.56:570][210]LogShaderCompilers: Display: Worker (4/5): shaders left to compile 6
[2020.09.10-09.50.57:233][243]LogShaderCompilers: Display: Worker (3/5): shaders left to compile 5
[2020.09.10-09.50.57:458][255]LogShaderCompilers: Display: Worker (2/5): shaders left to compile 4
[2020.09.10-09.50.57:611][263]LogShaderCompilers: Display: Worker (1/5): shaders left to compile 3
[2020.09.10-09.50.57:630][264]LogShaderCompilers: Display: Worker (4/5): shaders left to compile 2
[2020.09.10-09.50.58:059][283]LogShaderCompilers: Display: Worker (2/5): shaders left to compile 1
[2020.09.10-09.50.58:635][309]MaterialEditorStats: Base pass shader: 117 instructions
[2020.09.10-09.50.58:636][309]MaterialEditorStats: Base pass shader with Volumetric Lightmap: 191 instructions
[2020.09.10-09.50.58:636][309]MaterialEditorStats: Base pass vertex shader: 40 instructions
[2020.09.10-09.50.58:636][309]MaterialEditorStats: Texture samplers: 2/16
[2020.09.10-09.51.01:114][505]LogMaterialEditor: Saving and Compiling material NewMaterial
[2020.09.10-09.51.01:670][505]LogMaterial: Display: Missing cached shader map for material NewMaterial, compiling. 
[2020.09.10-09.51.01:699][505]LogShaderCompilers: Display: Worker (1/5): shaders left to compile 9
[2020.09.10-09.51.01:699][505]LogShaderCompilers: Display: Worker (2/5): shaders left to compile 8
[2020.09.10-09.51.01:699][505]LogShaderCompilers: Display: Worker (3/5): shaders left to compile 7
[2020.09.10-09.51.01:699][505]LogShaderCompilers: Display: Worker (4/5): shaders left to compile 6
[2020.09.10-09.51.01:733][505]LogMaterial: Display: Missing cached shader map for material NewMaterial, compiling. 
[2020.09.10-09.51.01:782][505]LogUObjectHash: Compacting FUObjectHashTables data took   1.19ms
[2020.09.10-09.51.01:792][505]LogMaterial: Display: Missing cached shader map for material DebugViewMode MaterialTexCoordScale, compiling. 
[2020.09.10-09.51.02:358][505]LogShaderCompilers: Display: Worker (3/5): shaders left to compile 22
[2020.09.10-09.51.02:358][505]LogShaderCompilers: Display: Worker (2/5): shaders left to compile 21
[2020.09.10-09.51.02:917][505]LogShaderCompilers: Display: Worker (1/5): shaders left to compile 20
[2020.09.10-09.51.02:917][505]LogShaderCompilers: Display: Worker (4/5): shaders left to compile 19
[2020.09.10-09.51.02:917][505]LogShaderCompilers: Display: Worker (2/5): shaders left to compile 18
[2020.09.10-09.51.02:917][505]LogShaderCompilers: Display: Worker (3/5): shaders left to compile 17
[2020.09.10-09.51.03:390][505]LogShaderCompilers: Display: Worker (4/5): shaders left to compile 16
[2020.09.10-09.51.03:390][505]LogShaderCompilers: Display: Worker (1/5): shaders left to compile 15
[2020.09.10-09.51.03:390][505]LogShaderCompilers: Display: Worker (3/5): shaders left to compile 11
[2020.09.10-09.51.03:390][505]LogShaderCompilers: Display: Worker (2/5): shaders left to compile 8
[2020.09.10-09.51.03:390][505]LogShaderCompilers: Display: Worker (4/5): shaders left to compile 5
[2020.09.10-09.51.03:399][505]TextureStreamingBuild: Display: Compiling optional shaders took 1.614 seconds.
[2020.09.10-09.51.03:411][505]LogUObjectHash: Compacting FUObjectHashTables data took   0.63ms
[2020.09.10-09.51.04:599][505]LogShaderCompilers: Display: Worker (4/5): shaders left to compile 3
[2020.09.10-09.51.04:599][505]LogShaderCompilers: Display: Worker (4/5): shaders left to compile 2
[2020.09.10-09.51.05:091][505]LogShaderCompilers: Display: Worker (3/5): shaders left to compile 1
[2020.09.10-09.51.05:111][505]Cmd: OBJ SAVEPACKAGE PACKAGE="/Game/StarterContent/Materials/NewMaterial" FILE="../../../../../../Users/Piitu/Documents/peli/peli/Content/StarterContent/Materials/NewMaterial.uasset" SILENT=true
[2020.09.10-09.51.05:123][505]LogSavePackage: Moving '../../../../../../Users/Piitu/Documents/peli/peli/Saved/NewMaterialA8655AF24E2F9B308CE34BBC17A845B5.tmp' to '../../../../../../Users/Piitu/Documents/peli/peli/Content/StarterContent/Materials/NewMaterial.uasset'
[2020.09.10-09.51.05:157][505]AssetCheck: New page: Asset Save: NewMaterial
[2020.09.10-09.51.05:157][505]LogContentValidation: Display: Validating Material /Game/StarterContent/Materials/NewMaterial.NewMaterial
[2020.09.10-09.51.05:160][505]MaterialEditorStats: Base pass shader: 117 instructions
[2020.09.10-09.51.05:160][505]MaterialEditorStats: Base pass shader with Volumetric Lightmap: 191 instructions
[2020.09.10-09.51.05:160][505]MaterialEditorStats: Base pass vertex shader: 40 instructions
[2020.09.10-09.51.05:160][505]MaterialEditorStats: Texture samplers: 3/16
[2020.09.10-09.52.31:005][642]LogMaterial: Display: Missing cached shader map for material NewMaterial, compiling. 
[2020.09.10-09.52.31:033][642]LogShaderCompilers: Display: Worker (1/5): shaders left to compile 9
[2020.09.10-09.52.31:033][642]LogShaderCompilers: Display: Worker (2/5): shaders left to compile 8
[2020.09.10-09.52.31:033][642]LogShaderCompilers: Display: Worker (3/5): shaders left to compile 7
[2020.09.10-09.52.31:033][642]LogShaderCompilers: Display: Worker (4/5): shaders left to compile 6
[2020.09.10-09.52.31:034][642]LogMaterial: Display: Missing cached shader map for material NewMaterial, compiling. 
[2020.09.10-09.52.31:118][643]LogMaterial: Display: Missing cached shader map for material Material_1, compiling. 
[2020.09.10-09.52.31:863][677]LogShaderCompilers: Display: Worker (3/5): shaders left to compile 13
[2020.09.10-09.52.32:107][688]LogShaderCompilers: Display: Worker (2/5): shaders left to compile 12
[2020.09.10-09.52.32:257][695]LogShaderCompilers: Display: Worker (4/5): shaders left to compile 11
[2020.09.10-09.52.32:379][701]LogShaderCompilers: Display: Worker (1/5): shaders left to compile 10
[2020.09.10-09.52.32:872][725]LogShaderCompilers: Display: Worker (4/5): shaders left to compile 9
[2020.09.10-09.52.32:910][727]LogShaderCompilers: Display: Worker (3/5): shaders left to compile 8
[2020.09.10-09.52.32:929][728]LogShaderCompilers: Display: Worker (2/5): shaders left to compile 7
[2020.09.10-09.52.33:274][745]LogShaderCompilers: Display: Worker (1/5): shaders left to compile 6
[2020.09.10-09.52.33:489][756]LogShaderCompilers: Display: Worker (3/5): shaders left to compile 5
[2020.09.10-09.52.33:795][772]LogShaderCompilers: Display: Worker (4/5): shaders left to compile 4
[2020.09.10-09.52.33:847][775]LogShaderCompilers: Display: Worker (2/5): shaders left to compile 2
[2020.09.10-09.52.34:020][785]LogShaderCompilers: Display: Worker (3/5): shaders left to compile 1
[2020.09.10-09.52.34:077][787]MaterialEditorStats: Base pass shader: 125 instructions
[2020.09.10-09.52.34:078][787]MaterialEditorStats: Base pass shader with Volumetric Lightmap: 199 instructions
[2020.09.10-09.52.34:078][787]MaterialEditorStats: Base pass vertex shader: 44 instructions
[2020.09.10-09.52.34:078][787]MaterialEditorStats: Texture samplers: 2/16
[2020.09.10-09.52.34:078][787]MaterialEditorStats: User interpolators: 2/4 Scalars (1/4 Vectors) (TexCoords: 2, Custom: 0)
[2020.09.10-09.52.45:772][644]LogAssetEditorSubsystem: Opening Asset editor for MaterialFunction /Engine/Functions/Engine_MaterialFunctions01/ImageAdjustment/3ColorBlend.3ColorBlend
[2020.09.10-09.52.45:842][644]LogMaterial: Display: Missing cached shader map for material PreviewMaterial_0, compiling. 
[2020.09.10-09.52.45:845][644]LogMaterial: Display: Missing cached shader map for material Material_2, compiling. 
[2020.09.10-09.52.45:849][644]LogMaterial: Display: Missing cached shader map for material PreviewMaterial_0, compiling. 
[2020.09.10-09.52.45:854][644]LogMaterial: Display: Missing cached shader map for material Material_2, compiling. 
[2020.09.10-09.52.45:856][644]LogShaderCompilers: Display: Worker (1/5): shaders left to compile 2
[2020.09.10-09.52.45:856][644]LogShaderCompilers: Display: Worker (2/5): shaders left to compile 1
[2020.09.10-09.52.45:864][644]LogMaterial: Display: Missing cached shader map for material FMatExpressionPreview MaterialExpressionFunctionOutput_0, compiling. 
[2020.09.10-09.52.45:871][644]LogMaterial: Display: Missing cached shader map for material FMatExpressionPreview MaterialExpressionFunctionInput_0, compiling. 
[2020.09.10-09.52.45:875][644]LogShaderCompilers: Display: Worker (3/5): shaders left to compile 12
[2020.09.10-09.52.45:875][644]LogShaderCompilers: Display: Worker (4/5): shaders left to compile 11
[2020.09.10-09.52.45:875][644]LogMaterial: Display: Missing cached shader map for material FMatExpressionPreview MaterialExpressionFunctionInput_1, compiling. 
[2020.09.10-09.52.45:880][644]LogMaterial: Display: Missing cached shader map for material FMatExpressionPreview MaterialExpressionFunctionInput_3, compiling. 
[2020.09.10-09.52.45:884][644]LogMaterial: Display: Missing cached shader map for material FMatExpressionPreview MaterialExpressionFunctionInput_5, compiling. 
[2020.09.10-09.52.46:263][645]LogSlate: Took 0.000433 seconds to synchronously load lazily loaded font '../../../Engine/Content/Slate/Fonts/Roboto-Italic.ttf' (157K)
[2020.09.10-09.52.46:461][654]LogShaderCompilers: Display: Worker (2/5): shaders left to compile 22
[2020.09.10-09.52.46:480][655]LogShaderCompilers: Display: Worker (3/5): shaders left to compile 21
[2020.09.10-09.52.46:575][660]LogShaderCompilers: Display: Worker (1/5): shaders left to compile 20
[2020.09.10-09.52.46:592][661]LogShaderCompilers: Display: Worker (4/5): shaders left to compile 19
[2020.09.10-09.52.47:160][687]LogShaderCompilers: Display: Worker (3/5): shaders left to compile 18
[2020.09.10-09.52.47:247][691]LogShaderCompilers: Display: Worker (1/5): shaders left to compile 17
[2020.09.10-09.52.47:304][694]LogShaderCompilers: Display: Worker (2/5): shaders left to compile 16
[2020.09.10-09.52.47:387][698]LogShaderCompilers: Display: Worker (4/5): shaders left to compile 15
[2020.09.10-09.52.47:975][724]LogShaderCompilers: Display: Worker (1/5): shaders left to compile 14
[2020.09.10-09.52.47:995][725]LogShaderCompilers: Display: Worker (2/5): shaders left to compile 13
[2020.09.10-09.52.48:014][726]LogShaderCompilers: Display: Worker (3/5): shaders left to compile 12
[2020.09.10-09.52.48:192][735]LogShaderCompilers: Display: Worker (4/5): shaders left to compile 11
[2020.09.10-09.52.48:669][757]LogShaderCompilers: Display: Worker (3/5): shaders left to compile 10
[2020.09.10-09.52.48:712][759]LogShaderCompilers: Display: Worker (2/5): shaders left to compile 9
[2020.09.10-09.52.48:772][762]LogShaderCompilers: Display: Worker (1/5): shaders left to compile 8
[2020.09.10-09.52.48:943][771]LogShaderCompilers: Display: Worker (4/5): shaders left to compile 7
[2020.09.10-09.52.49:313][789]LogShaderCompilers: Display: Worker (2/5): shaders left to compile 6
[2020.09.10-09.52.49:372][792]LogShaderCompilers: Display: Worker (3/5): shaders left to compile 5
[2020.09.10-09.52.49:390][793]LogShaderCompilers: Display: Worker (1/5): shaders left to compile 4
[2020.09.10-09.52.49:596][804]LogShaderCompilers: Display: Worker (4/5): shaders left to compile 2
[2020.09.10-09.52.49:857][817]LogShaderCompilers: Display: Worker (4/5): shaders left to compile 1
[2020.09.10-09.53.18:343][915]LogMaterial: Display: Missing cached shader map for material Material_3, compiling. 
[2020.09.10-09.53.18:361][916]LogShaderCompilers: Display: Worker (1/5): shaders left to compile 4
[2020.09.10-09.53.18:361][916]LogShaderCompilers: Display: Worker (2/5): shaders left to compile 2
[2020.09.10-09.53.31:236][666]LogSlate: Window 'Message' being destroyed
[2020.09.10-09.53.31:242][666]Message dialog closed, result: No, title: Message, text: Would you like to apply the changes of the modified material to the original material?
/Game/StarterContent/Materials/NewMaterial.NewMaterial
(Selecting 'No' will cause all changes to be lost!)
[2020.09.10-09.53.32:636][666]LogSlate: Window 'Message' being destroyed
[2020.09.10-09.53.32:642][666]Message dialog closed, result: No, title: Message, text: Would you like to apply the changes of the modified material to the original material?
/Engine/Functions/Engine_MaterialFunctions01/ImageAdjustment/3ColorBlend.3ColorBlend
(Selecting 'No' will cause all changes to be lost!)
[2020.09.10-09.53.32:647][666]LogSlate: Window '3ColorBlend' being destroyed
[2020.09.10-09.53.32:648][666]LogSlate: Window '3ColorBlend' being destroyed
[2020.09.10-09.53.32:707][666]LogWorld: UWorld::CleanupWorld for World_1, bSessionEnded=true, bCleanupResources=true
[2020.09.10-09.53.32:707][666]LogSlate: InvalidateAllWidgets triggered.  All widgets were invalidated
[2020.09.10-09.53.32:749][666]LogWorld: UWorld::CleanupWorld for World_3, bSessionEnded=true, bCleanupResources=true
[2020.09.10-09.53.32:749][666]LogSlate: InvalidateAllWidgets triggered.  All widgets were invalidated
[2020.09.10-09.53.37:494][196]LogAssetEditorSubsystem: Opening Asset editor for Material /Game/StarterContent/Materials/NewMaterial.NewMaterial
[2020.09.10-09.53.37:495][196]LogMaterial: Display: Missing cached shader map for material PreviewMaterial_1, compiling. 
[2020.09.10-09.53.37:615][196]LogMaterial: Display: Missing cached shader map for material PreviewMaterial_1, compiling. 
[2020.09.10-09.53.37:624][196]LogMaterial: Display: Missing cached shader map for material PreviewMaterial_1, compiling. 
[2020.09.10-09.53.37:637][196]LogShaderCompilers: Display: Worker (1/5): shaders left to compile 9
[2020.09.10-09.53.37:637][196]LogShaderCompilers: Display: Worker (2/5): shaders left to compile 8
[2020.09.10-09.53.37:637][196]LogShaderCompilers: Display: Worker (3/5): shaders left to compile 7
[2020.09.10-09.53.37:637][196]LogShaderCompilers: Display: Worker (4/5): shaders left to compile 6
[2020.09.10-09.53.38:469][218]LogShaderCompilers: Display: Worker (3/5): shaders left to compile 5
[2020.09.10-09.53.38:509][220]LogShaderCompilers: Display: Worker (2/5): shaders left to compile 4
[2020.09.10-09.53.38:663][225]LogShaderCompilers: Display: Worker (1/5): shaders left to compile 3
[2020.09.10-09.53.38:847][233]LogShaderCompilers: Display: Worker (4/5): shaders left to compile 2
[2020.09.10-09.53.39:094][244]LogShaderCompilers: Display: Worker (2/5): shaders left to compile 1
[2020.09.10-09.53.39:733][274]MaterialEditorStats: Base pass shader: 117 instructions
[2020.09.10-09.53.39:733][274]MaterialEditorStats: Base pass shader with Volumetric Lightmap: 191 instructions
[2020.09.10-09.53.39:733][274]MaterialEditorStats: Base pass vertex shader: 40 instructions
[2020.09.10-09.53.39:733][274]MaterialEditorStats: Texture samplers: 2/16
[2020.09.10-09.53.43:647][571]LogSlate: Window 'NewMaterial' being destroyed
[2020.09.10-09.53.43:654][571]LogSlate: Window 'NewMaterial' being destroyed
[2020.09.10-09.53.43:690][571]LogWorld: UWorld::CleanupWorld for World_4, bSessionEnded=true, bCleanupResources=true
[2020.09.10-09.53.43:690][571]LogSlate: InvalidateAllWidgets triggered.  All widgets were invalidated
[2020.09.10-09.53.58:929][280]LogSlate: Window 'Reference Viewer' being destroyed
[2020.09.10-09.53.58:932][280]LogSlate: Window 'Reference Viewer' being destroyed
[2020.09.10-09.55.05:710][161]LogSavePackage: Moving '../../../../../../Users/Piitu/Documents/peli/peli/Saved/kivi_animoitu_4x5B037F1654CDA9987D7D95B89F9BC9CD6.tmp' to '../../../../../../Users/Piitu/Documents/peli/peli/Content/2DSideScroller/Flipbooks/kivi_animoitu_4x5.uasset'
[2020.09.10-09.55.05:806][161]LogUObjectHash: Compacting FUObjectHashTables data took   1.23ms
[2020.09.10-09.55.05:825][161]LogUObjectHash: Compacting FUObjectHashTables data took   1.20ms
[2020.09.10-09.55.05:834][161]LogUObjectHash: Compacting FUObjectHashTables data took   0.28ms
[2020.09.10-09.55.05:859][161]AssetCheck: New page: Asset Save: kivi_animoitu_4x5
[2020.09.10-09.55.05:859][161]LogContentValidation: Display: Validating PaperFlipbook /Game/2DSideScroller/Flipbooks/kivi_animoitu_4x5.kivi_animoitu_4x5
[2020.09.10-09.56.44:398][426]LogFactory: FactoryCreateFile: Texture with ReimportTextureFactory (0 0 C:\Users\Piitu\Documents\kuutio\ansa_kivi\kivi_anim_0016.png)
[2020.09.10-09.56.44:400][426]LogTexture: Display: Building textures: kivi_anim_0016 (AutoDXT, 100X100)
[2020.09.10-09.56.44:405][426]LogFactory: FactoryCreateFile: Texture with ReimportTextureFactory (0 0 C:\Users\Piitu\Documents\kuutio\ansa_kivi\kivi_anim_0001.png)
[2020.09.10-09.56.44:407][426]LogTexture: Display: Building textures: kivi_anim_0001 (AutoDXT, 100X100)
[2020.09.10-09.56.44:411][426]LogFactory: FactoryCreateFile: Texture with ReimportTextureFactory (0 0 C:\Users\Piitu\Documents\kuutio\ansa_kivi\kivi_anim_0002.png)
[2020.09.10-09.56.44:412][426]LogTexture: Display: Building textures: kivi_anim_0002 (AutoDXT, 100X100)
[2020.09.10-09.56.44:416][426]LogFactory: FactoryCreateFile: Texture with ReimportTextureFactory (0 0 C:\Users\Piitu\Documents\kuutio\ansa_kivi\kivi_anim_0003.png)
[2020.09.10-09.56.44:418][426]LogTexture: Display: Building textures: kivi_anim_0003 (AutoDXT, 100X100)
[2020.09.10-09.56.44:424][426]LogFactory: FactoryCreateFile: Texture with ReimportTextureFactory (0 0 C:\Users\Piitu\Documents\kuutio\ansa_kivi\kivi_anim_0004.png)
[2020.09.10-09.56.44:425][426]LogTexture: Display: Building textures: kivi_anim_0004 (AutoDXT, 100X100)
[2020.09.10-09.56.44:430][426]LogFactory: FactoryCreateFile: Texture with ReimportTextureFactory (0 0 C:\Users\Piitu\Documents\kuutio\ansa_kivi\kivi_anim_0005.png)
[2020.09.10-09.56.44:432][426]LogTexture: Display: Building textures: kivi_anim_0005 (AutoDXT, 100X100)
[2020.09.10-09.56.44:436][426]LogFactory: FactoryCreateFile: Texture with ReimportTextureFactory (0 0 C:\Users\Piitu\Documents\kuutio\ansa_kivi\kivi_anim_0006.png)
[2020.09.10-09.56.44:438][426]LogTexture: Display: Building textures: kivi_anim_0006 (AutoDXT, 100X100)
[2020.09.10-09.56.44:444][426]LogFactory: FactoryCreateFile: Texture with ReimportTextureFactory (0 0 C:\Users\Piitu\Documents\kuutio\ansa_kivi\kivi_anim_0007.png)
[2020.09.10-09.56.44:445][426]LogTexture: Display: Building textures: kivi_anim_0007 (AutoDXT, 100X100)
[2020.09.10-09.56.44:449][426]LogFactory: FactoryCreateFile: Texture with ReimportTextureFactory (0 0 C:\Users\Piitu\Documents\kuutio\ansa_kivi\kivi_anim_0008.png)
[2020.09.10-09.56.44:451][426]LogTexture: Display: Building textures: kivi_anim_0008 (AutoDXT, 100X100)
[2020.09.10-09.56.44:456][426]LogFactory: FactoryCreateFile: Texture with ReimportTextureFactory (0 0 C:\Users\Piitu\Documents\kuutio\ansa_kivi\kivi_anim_0009.png)
[2020.09.10-09.56.44:457][426]LogTexture: Display: Building textures: kivi_anim_0009 (AutoDXT, 100X100)
[2020.09.10-09.56.44:462][426]LogFactory: FactoryCreateFile: Texture with ReimportTextureFactory (0 0 C:\Users\Piitu\Documents\kuutio\ansa_kivi\kivi_anim_0010.png)
[2020.09.10-09.56.44:463][426]LogTexture: Display: Building textures: kivi_anim_0010 (AutoDXT, 100X100)
[2020.09.10-09.56.44:468][426]LogFactory: FactoryCreateFile: Texture with ReimportTextureFactory (0 0 C:\Users\Piitu\Documents\kuutio\ansa_kivi\kivi_anim_0011.png)
[2020.09.10-09.56.44:469][426]LogTexture: Display: Building textures: kivi_anim_0011 (AutoDXT, 100X100)
[2020.09.10-09.56.44:475][426]LogFactory: FactoryCreateFile: Texture with ReimportTextureFactory (0 0 C:\Users\Piitu\Documents\kuutio\ansa_kivi\kivi_anim_0012.png)
[2020.09.10-09.56.44:476][426]LogTexture: Display: Building textures: kivi_anim_0012 (AutoDXT, 100X100)
[2020.09.10-09.56.44:481][426]LogFactory: FactoryCreateFile: Texture with ReimportTextureFactory (0 0 C:\Users\Piitu\Documents\kuutio\ansa_kivi\kivi_anim_0013.png)
[2020.09.10-09.56.44:482][426]LogTexture: Display: Building textures: kivi_anim_0013 (AutoDXT, 100X100)
[2020.09.10-09.56.44:487][426]LogFactory: FactoryCreateFile: Texture with ReimportTextureFactory (0 0 C:\Users\Piitu\Documents\kuutio\ansa_kivi\kivi_anim_0014.png)
[2020.09.10-09.56.44:489][426]LogTexture: Display: Building textures: kivi_anim_0014 (AutoDXT, 100X100)
[2020.09.10-09.56.44:494][426]LogFactory: FactoryCreateFile: Texture with ReimportTextureFactory (0 0 C:\Users\Piitu\Documents\kuutio\ansa_kivi\kivi_anim_0015.png)
[2020.09.10-09.56.44:495][426]LogTexture: Display: Building textures: kivi_anim_0015 (AutoDXT, 100X100)
[2020.09.10-09.56.47:730][464]LogFactory: FactoryCreateFile: Texture with ReimportTextureFactory (0 0 C:\Users\Piitu\Documents\kuutio\ansa_kivi\kivi_animoitu_4x4.png)
[2020.09.10-09.56.47:733][464]LogTexture: Display: Building textures: kivi_animoitu_4x4 (AutoDXT, 512X504)
[2020.09.10-09.56.58:789][633]LogUObjectHash: Compacting FUObjectHashTables data took   1.28ms
[2020.09.10-09.56.59:900][633]LogSlate: Window 'Delete Assets' being destroyed
[2020.09.10-09.56.59:977][633]LogUObjectHash: Compacting FUObjectHashTables data took   0.69ms
[2020.09.10-09.57.03:535][ 12]LogD3D11RHI: Error: Result failed 
 at D:/Build/++UE4+Licensee/Sync/Engine/Source/Runtime/Windows/D3D11RHI/Private/D3D11Query.cpp:348 
 with error DXGI_ERROR_DEVICE_REMOVED DXGI_ERROR_DRIVER_INTERNAL_ERROR
[2020.09.10-09.57.03:535][ 12]LogRHI: Error: [Aftermath] Status: PageFault
[2020.09.10-09.57.03:535][ 12]LogRHI: Error: [Aftermath] GPU Stack Dump
[2020.09.10-09.57.03:535][ 12]LogRHI: Error: [Aftermath] 0: FRAME
[2020.09.10-09.57.03:535][ 12]LogRHI: Error: [Aftermath] 1: SlateUI Title = peli - Unreal Editor
[2020.09.10-09.57.03:535][ 12]LogRHI: Error: [Aftermath] GPU Stack Dump
[2020.09.10-09.57.03:553][ 12]LogD3D11RHI: [Aftermath] GDynamicRHI=0000020586A120C0, GDX11NVAfterMathEnabled=1, Result=0x00000001, bDeviceActive=0
[2020.09.10-09.57.03:553][ 12]LogWindows: Windows GetLastError: The operation completed successfully. (0)
